// Jest Snapshot v1, https://goo.gl/fbAQLP

exports[`<RootCategoryCard/> should render RootCategory Card with separator  1`] = `
.c6 {
  font-size: 13px;
  font-family: Gilroy-Medium;
  -webkit-letter-spacing: 0.26px;
  -moz-letter-spacing: 0.26px;
  -ms-letter-spacing: 0.26px;
  letter-spacing: 0.26px;
  line-height: 15px;
  font-style: normal;
  color: #121213;
  display: -webkit-box;
  display: -webkit-flex;
  display: -ms-flexbox;
  display: flex;
  -webkit-box-pack: justify;
  -webkit-justify-content: space-between;
  -ms-flex-pack: justify;
  justify-content: space-between;
  margin-bottom: 16px;
}

.c6:last-child {
  margin: 0;
}

.c7 {
  width: 50%;
  text-align: left;
  word-break: break-all;
}

.c8 {
  width: 30%;
  text-align: right;
  word-break: break-all;
}

.c0 {
  width: 270px;
  height: 300px;
  background: #FFFFFF;
  border: 2px solid transparent;
  border-radius: 4px;
  box-sizing: border-box;
}

.c0:hover {
  background: #F1F2F4;
}

.c0:focus {
  outline: none;
  background: #FFFFFF;
  border: 2px solid #FD9F1C;
}

.c2 {
  font-family: Gilroy-Medium;
  padding-bottom: 14px;
  margin-bottom: 16px;
  border-bottom: 1px solid #64707D30;
}

.c3 {
  font-size: 18px;
  font-family: Gilroy-SemiBold;
  -webkit-letter-spacing: 0px;
  -moz-letter-spacing: 0px;
  -ms-letter-spacing: 0px;
  letter-spacing: 0px;
  line-height: 21px;
  font-style: normal;
  color: #121213;
  margin-bottom: 11px;
}

.c4 {
  font-size: 16px;
  font-family: Gilroy-Medium;
  -webkit-letter-spacing: 0.32px;
  -moz-letter-spacing: 0.32px;
  -ms-letter-spacing: 0.32px;
  letter-spacing: 0.32px;
  line-height: 19px;
  font-style: normal;
  color: #121213;
  margin-bottom: 4px;
}

.c5 {
  font-size: 13px;
  font-family: Gilroy-Medium;
  -webkit-letter-spacing: 0.26px;
  -moz-letter-spacing: 0.26px;
  -ms-letter-spacing: 0.26px;
  letter-spacing: 0.26px;
  line-height: 15px;
  font-style: normal;
  color: #64707D;
}

.c1 {
  box-sizing: border-box;
  padding: 24px;
}

.c1:focus {
  outline: none;
  border: none;
}

<div>
  <div
    class="c0"
    height="300px"
    width="270px"
  >
    <div
      class="c1"
      tabindex="-1"
    >
      <div
        class="c2"
      >
        <div
          class="c3"
        >
          Header
        </div>
        <div
          class="c4"
        >
          Shirts
        </div>
        <div
          class="c5"
        >
          Updated 9/8 12:15PM PST
        </div>
      </div>
      <div
        class="c6"
      >
        <div
          class="c7"
        >
          Subcategories
        </div>
        <div
          class="c8"
        >
          51
        </div>
      </div>
      <div
        class="c6"
      >
        <div
          class="c7"
        >
          Attributes
        </div>
        <div
          class="c8"
        >
          23
        </div>
      </div>
    </div>
  </div>
</div>
`;

exports[`<RootCategoryCard/> should render RootCategoryCard without separator 1`] = `
.c6 {
  font-size: 13px;
  font-family: Gilroy-Medium;
  -webkit-letter-spacing: 0.26px;
  -moz-letter-spacing: 0.26px;
  -ms-letter-spacing: 0.26px;
  letter-spacing: 0.26px;
  line-height: 15px;
  font-style: normal;
  color: #121213;
  display: -webkit-box;
  display: -webkit-flex;
  display: -ms-flexbox;
  display: flex;
  -webkit-box-pack: justify;
  -webkit-justify-content: space-between;
  -ms-flex-pack: justify;
  justify-content: space-between;
  margin-bottom: 16px;
}

.c6:last-child {
  margin: 0;
}

.c7 {
  width: 50%;
  text-align: left;
  word-break: break-all;
}

.c8 {
  width: 30%;
  text-align: right;
  word-break: break-all;
}

.c0 {
  width: 270px;
  height: 300px;
  background: #FFFFFF;
  border: 2px solid transparent;
  border-radius: 4px;
  box-sizing: border-box;
}

.c0:hover {
  background: #F1F2F4;
}

.c0:focus {
  outline: none;
  background: #FFFFFF;
  border: 2px solid #FD9F1C;
}

.c2 {
  font-family: Gilroy-Medium;
  padding-bottom: 14px;
  margin-bottom: 16px;
}

.c3 {
  font-size: 18px;
  font-family: Gilroy-SemiBold;
  -webkit-letter-spacing: 0px;
  -moz-letter-spacing: 0px;
  -ms-letter-spacing: 0px;
  letter-spacing: 0px;
  line-height: 21px;
  font-style: normal;
  color: #121213;
  margin-bottom: 11px;
}

.c4 {
  font-size: 16px;
  font-family: Gilroy-Medium;
  -webkit-letter-spacing: 0.32px;
  -moz-letter-spacing: 0.32px;
  -ms-letter-spacing: 0.32px;
  letter-spacing: 0.32px;
  line-height: 19px;
  font-style: normal;
  color: #121213;
  margin-bottom: 4px;
}

.c5 {
  font-size: 13px;
  font-family: Gilroy-Medium;
  -webkit-letter-spacing: 0.26px;
  -moz-letter-spacing: 0.26px;
  -ms-letter-spacing: 0.26px;
  letter-spacing: 0.26px;
  line-height: 15px;
  font-style: normal;
  color: #64707D;
}

.c1 {
  box-sizing: border-box;
  padding: 24px;
}

.c1:focus {
  outline: none;
  border: none;
}

<div>
  <div
    class="c0"
    height="300px"
    width="270px"
  >
    <div
      class="c1"
      tabindex="-1"
    >
      <div
        class="c2"
      >
        <div
          class="c3"
        >
          Header
        </div>
        <div
          class="c4"
        >
          Shirts
        </div>
        <div
          class="c5"
        >
          Updated 9/8 12:15PM PST
        </div>
      </div>
      <div
        class="c6"
      >
        <div
          class="c7"
        >
          Subcategories
        </div>
        <div
          class="c8"
        >
          51
        </div>
      </div>
      <div
        class="c6"
      >
        <div
          class="c7"
        >
          Attributes
        </div>
        <div
          class="c8"
        >
          23
        </div>
      </div>
    </div>
  </div>
</div>
`;
