// Jest Snapshot v1, https://goo.gl/fbAQLP

exports[`Button renders primary Button correctly with default props 1`] = `
.c0 {
  box-sizing: border-box;
  display: -webkit-box;
  display: -webkit-flex;
  display: -ms-flexbox;
  display: flex;
  -webkit-flex-direction: column;
  -ms-flex-direction: column;
  flex-direction: column;
  -webkit-box-pack: center;
  -webkit-justify-content: center;
  -ms-flex-pack: center;
  justify-content: center;
  -webkit-align-items: center;
  -webkit-box-align: center;
  -ms-flex-align: center;
  align-items: center;
  font-size: 14px;
  font-family: Gilroy-Medium;
  -webkit-letter-spacing: 0px;
  -moz-letter-spacing: 0px;
  -ms-letter-spacing: 0px;
  letter-spacing: 0px;
  line-height: 16px;
  font-style: normal;
  min-width: 90px;
  height: 36px;
  padding: 8px 14px;
  font-family: Gilroy-Medium;
  text-align: center;
  color: #FFFFFF;
  background: #0D62FF;
  border: 1px solid #0D62FF;
  border-radius: 60px;
  cursor: pointer;
  outline: none;
  box-shadow: none;
  display: -webkit-box;
  display: -webkit-flex;
  display: -ms-flexbox;
  display: flex;
  -webkit-box-pack: center;
  -webkit-justify-content: center;
  -ms-flex-pack: center;
  justify-content: center;
  -webkit-align-items: center;
  -webkit-box-align: center;
  -ms-flex-align: center;
  align-items: center;
}

.c0:hover {
  opacity: 0.8;
}

.c0:focus {
  border: 1px solid #FD9F1C;
}

.c0:active {
  background: #0033B3;
  border: 1px solid #0033B3;
  opacity: 1;
}

<button
  className="c0"
  disabled={false}
  onClick={[MockFunction]}
  size="small"
>
  Button Label
</button>
`;

exports[`Button renders primary Button correctly with size:large, theme: light, isPrimary:false 1`] = `
.c0 {
  box-sizing: border-box;
  display: -webkit-box;
  display: -webkit-flex;
  display: -ms-flexbox;
  display: flex;
  -webkit-flex-direction: column;
  -ms-flex-direction: column;
  flex-direction: column;
  -webkit-box-pack: center;
  -webkit-justify-content: center;
  -ms-flex-pack: center;
  justify-content: center;
  -webkit-align-items: center;
  -webkit-box-align: center;
  -ms-flex-align: center;
  align-items: center;
  font-size: 14px;
  font-family: Gilroy-Medium;
  -webkit-letter-spacing: 0px;
  -moz-letter-spacing: 0px;
  -ms-letter-spacing: 0px;
  letter-spacing: 0px;
  line-height: 16px;
  font-style: normal;
  min-width: 103px;
  height: 48px;
  padding: 16px 20px;
  font-family: Gilroy-Medium;
  text-align: center;
  color: #121213;
  background: #FFFFFF;
  border: 1px solid #D5D9DD;
  border-radius: 60px;
  cursor: pointer;
  outline: none;
  box-shadow: none;
  display: -webkit-box;
  display: -webkit-flex;
  display: -ms-flexbox;
  display: flex;
}

<button
  className="c0"
  disabled={false}
  onClick={[MockFunction]}
  size="large"
>
  Button Label
</button>
`;

exports[`Button renders primary Button correctly with size:small, theme: dark, isPrimary:false 1`] = `
.c0 {
  box-sizing: border-box;
  display: -webkit-box;
  display: -webkit-flex;
  display: -ms-flexbox;
  display: flex;
  -webkit-flex-direction: column;
  -ms-flex-direction: column;
  flex-direction: column;
  -webkit-box-pack: center;
  -webkit-justify-content: center;
  -ms-flex-pack: center;
  justify-content: center;
  -webkit-align-items: center;
  -webkit-box-align: center;
  -ms-flex-align: center;
  align-items: center;
  font-size: 14px;
  font-family: Gilroy-Medium;
  -webkit-letter-spacing: 0px;
  -moz-letter-spacing: 0px;
  -ms-letter-spacing: 0px;
  letter-spacing: 0px;
  line-height: 16px;
  font-style: normal;
  min-width: 90px;
  height: 36px;
  padding: 8px 14px;
  font-family: Gilroy-Medium;
  text-align: center;
  color: #FFFFFF;
  background: #0D62FF;
  border: 1px solid #0D62FF;
  border-radius: 60px;
  cursor: pointer;
  outline: none;
  box-shadow: none;
  display: -webkit-box;
  display: -webkit-flex;
  display: -ms-flexbox;
  display: flex;
  -webkit-box-pack: center;
  -webkit-justify-content: center;
  -ms-flex-pack: center;
  justify-content: center;
  -webkit-align-items: center;
  -webkit-box-align: center;
  -ms-flex-align: center;
  align-items: center;
}

.c0:hover {
  opacity: 0.8;
}

.c0:focus {
  border: 1px solid #FD9F1C;
}

.c0:active {
  background: #0033B3;
  border: 1px solid #0033B3;
  opacity: 1;
}

<button
  className="c0"
  disabled={false}
  onClick={[MockFunction]}
  size="small"
>
  Button Label
</button>
`;

exports[`Button renders quaternary Button correctly with default props 1`] = `
.c0 {
  display: -webkit-box;
  display: -webkit-flex;
  display: -ms-flexbox;
  display: flex;
  min-width: 100%;
  height: 72px;
  cursor: pointer;
  -webkit-flex-direction: row;
  -ms-flex-direction: row;
  flex-direction: row;
  -webkit-align-items: center;
  -webkit-box-align: center;
  -ms-flex-align: center;
  align-items: center;
  -webkit-box-pack: center;
  -webkit-justify-content: center;
  -ms-flex-pack: center;
  justify-content: center;
  font-size: 13px;
  font-family: Gilroy-Medium;
  -webkit-letter-spacing: 0.26px;
  -moz-letter-spacing: 0.26px;
  -ms-letter-spacing: 0.26px;
  letter-spacing: 0.26px;
  line-height: 15px;
  font-style: normal;
  border-radius: 4px;
  background-color: transparent;
  color: #121213;
  border: 1px dashed #B9BFC7;
}

.c0 .icon {
  fill: #121213;
  padding-right: 4px;
  padding-left: 0px;
}

.c0:hover {
  background-color: #CFE0FF;
  color: #0033B3;
  border: 1px dashed #0033B3;
}

.c0:hover .icon {
  fill: #0033B3;
}

.c0:focus {
  border: 1px solid #FD9F1C;
  background-color: transparent;
}

.c0:active {
  background-color: #e7f0ff;
  color: #0033B3;
  border: 1px dashed #0033B3;
}

.c0:active .icon {
  fill: #0033B3;
}

<button
  className="c0"
  disabled={false}
  onClick={[MockFunction]}
>
  <span>
    Button Label
  </span>
</button>
`;
