// Jest Snapshot v1, https://goo.gl/fbAQLP

exports[`<AutoComplete/> renders 1`] = `
.c1 {
  -webkit-flex: 1;
  -ms-flex: 1;
  flex: 1;
  box-sizing: border-box;
  font-family: Gilroy-Medium;
}

.c1 .error {
  margin-top: 4px;
  margin-left: 1px;
  font-size: 12px;
  font-family: 'Gilroy','Gilroy-Regular';
  -webkit-letter-spacing: 0px;
  -moz-letter-spacing: 0px;
  -ms-letter-spacing: 0px;
  letter-spacing: 0px;
  line-height: 14px;
  font-style: normal;
  css: font-size:12px;
  font-family: 'Gilroy','Gilroy-Regular';
  -webkit-letter-spacing: 0px;
  -moz-letter-spacing: 0px;
  -ms-letter-spacing: 0px;
  letter-spacing: 0px;
  line-height: 14px;
  font-style: normal;
  font-family: Gilroy-Medium;
  color: #D50000;
}

.c2 {
  display: -webkit-box;
  display: -webkit-flex;
  display: -ms-flexbox;
  display: flex;
  -webkit-box-pack: center;
  -webkit-justify-content: center;
  -ms-flex-pack: center;
  justify-content: center;
  -webkit-align-items: center;
  -webkit-box-align: center;
  -ms-flex-align: center;
  align-items: center;
  width: 100%;
  position: relative;
}

.c2 * {
  box-sizing: border-box;
}

.c2 .input__parent {
  width: 100%;
}

.c2.password input {
  padding-right: 50px !important;
}

.c2.password .show-pass svg path {
  fill: #121213;
}

.c2.floated-label:not(.disabled):hover .input__wrapper {
  border-bottom: 1px solid #121213;
}

.c2.floated-label .input__parent {
  padding-top: 10px;
}

.c2.floated-label .input__label {
  position: absolute;
  top: 26px;
  color: #64707D;
}

.c2.floated-label .input__wrapper {
  display: -webkit-box;
  display: -webkit-flex;
  display: -ms-flexbox;
  display: flex;
  -webkit-align-items: center;
  -webkit-box-align: center;
  -ms-flex-align: center;
  align-items: center;
  border-bottom: 1px solid #64707D;
}

.c2.floated-label .input__wrapper .icon {
  position: static;
  -webkit-transform: none;
  -ms-transform: none;
  transform: none;
  font-size: 13px;
  width: -webkit-max-content;
  width: -moz-max-content;
  width: max-content;
  color: #121213;
}

.c2.floated-label .input__wrapper .icon.left {
  padding-right: 5px;
}

.c2.floated-label .input__wrapper .icon.right {
  padding-left: 5px;
}

.c2.floated-label .input__wrapper input {
  padding: 16px 0px 16px;
  border: none;
}

.c2.floated-label .input__wrapper input::-webkit-input-placeholder {
  color: transparent;
}

.c2.floated-label .input__wrapper input::-moz-placeholder {
  color: transparent;
}

.c2.floated-label .input__wrapper input:-ms-input-placeholder {
  color: transparent;
}

.c2.floated-label .input__wrapper input::placeholder {
  color: transparent;
}

.c2.floated-label.container_focus .input__label,
.c2.floated-label.filled .input__label,
.c2.floated-label.has_prefix .input__label {
  top: 2px;
  color: #64707D;
}

.c2.floated-label.container_focus:not(.disabled) .input__wrapper {
  border-bottom: 1px solid #0D62FF;
}

.c2.floated-label.filled.disabled .input__parent span,
.c2.floated-label.filled.disabled .input__parent input {
  opacity: 1;
  font-family: 'Gilroy-Regular';
  color: #A0A0A1;
}

.c2.boxed .input__label {
  padding-bottom: 5px;
}

.c2.container_error:not(.disabled) .input__wrapper {
  border-color: #D50000;
}

.c2.disabled .input__label {
  color: #A0A0A1;
}

.c2 .input_parent {
  -webkit-flex-wrap: wrap;
  -ms-flex-wrap: wrap;
  flex-wrap: wrap;
  display: -webkit-box;
  display: -webkit-flex;
  display: -ms-flexbox;
  display: flex;
  width: 100%;
  height: 100%;
  position: relative;
  -webkit-flex: 0 1 auto;
  -ms-flex: 0 1 auto;
  flex: 0 1 auto;
  padding: 0 0.75rem;
  padding-top: 15px;
}

.c2 .input__label {
  width: 100%;
  font-size: 13px;
  font-weight: normal;
  display: -webkit-box;
  display: -webkit-flex;
  display: -ms-flexbox;
  display: flex;
  -webkit-flex-flow: row nowrap;
  -ms-flex-flow: row nowrap;
  flex-flow: row nowrap;
  z-index: 1;
  box-sizing: border-box;
  position: absolute;
  top: 0px;
  -webkit-transition: 0.2s;
  transition: 0.2s;
  -webkit-letter-spacing: 0.02em;
  -moz-letter-spacing: 0.02em;
  -ms-letter-spacing: 0.02em;
  letter-spacing: 0.02em;
  white-space: nowrap;
}

.c2 .input__label--hidden {
  position: absolute;
  text-indent: -9999px;
}

.c2 .input__label .label-text {
  float: left;
  overflow: hidden;
  text-overflow: ellipsis;
}

.c2 .input__label .locale-label {
  float: right;
  margin-left: auto;
}

.c2 .input__wrapper {
  position: relative;
}

.c2 .input__wrapper .icon {
  position: absolute;
  width: 20px;
  height: auto;
  top: 50%;
  -webkit-transform: translateY(-50%);
  -ms-transform: translateY(-50%);
  transform: translateY(-50%);
  left: 2px;
}

.c2 .input__wrapper .icon svg {
  vertical-align: middle;
}

.c2 .input__show {
  cursor: pointer;
  font-size: 0.675rem;
  -webkit-text-decoration: underline;
  text-decoration: underline;
  line-height: 1;
  font-weight: 300;
  position: absolute;
  top: 50%;
  -webkit-transform: translateY(-50%);
  -ms-transform: translateY(-50%);
  transform: translateY(-50%);
  right: 20px;
  width: auto;
}

.c2.icon-left input {
  padding-left: 35px;
}

.c2.sm.boxed.icon-left .icon .left {
  left: 10px;
}

.c2.sm.icon-left .icon {
  width: 14px;
  left: 10px;
}

.c2.sm input {
  padding-top: 11px;
  padding-bottom: 11px;
}

.c2.sm.icon-left input {
  padding-left: 40px;
}

.c2.md input {
  padding-top: 14px;
  padding-bottom: 12px;
}

.c3 {
  border: none;
  border-bottom: 1px #121213 solid;
  background-clip: padding-box;
  display: block;
  -webkit-box-sizing: border-box;
  box-sizing: border-box;
  width: 100%;
  padding-top: 16px;
  padding-bottom: 16px;
  word-break: normal;
  line-height: initial;
  -webkit-transition: all 0.2s ease-out;
  transition: all 0.2s ease-out;
  outline: none;
  -webkit-letter-spacing: 0.02em;
  -moz-letter-spacing: 0.02em;
  -ms-letter-spacing: 0.02em;
  letter-spacing: 0.02em;
  font-size: 13px;
  background-color: #FFFFFF !important;
}

.c3:disabled {
  pointer-events: none;
  opacity: 0.5;
  color: inherit;
}

.c3.custom {
  padding: 0px;
  margin: 0px;
}

.c3.custom:focus {
  border: none;
  padding: none;
}

.c3:-webkit-autofill {
  -webkit-animation-name: jYsTcq;
  animation-name: jYsTcq;
  -webkit-transition: background-color 50000s ease-in-out 0s;
  transition: background-color 50000s ease-in-out 0s;
}

.c0 {
  display: -webkit-box;
  display: -webkit-flex;
  display: -ms-flexbox;
  display: flex;
  box-shadow: 0px 5px 20px rgba(115,127,143,0.1);
  background-color: #ffffff;
  border-radius: 50px;
  box-sizing: border-box;
  padding: 5px 25px;
  width: 100%;
  -webkit-align-items: center;
  -webkit-box-align: center;
  -ms-flex-align: center;
  align-items: center;
  position: relative;
  height: 50px;
}

.c0 .ac-input-wrapper {
  width: 100%;
  position: relative;
}

.c0 .ac-input-wrapper .ac-icon-right {
  position: absolute;
  right: 0px;
  top: 50%;
  -webkit-transform: translateY(-50%);
  -ms-transform: translateY(-50%);
  transform: translateY(-50%);
}

.c0 input {
  border: none;
}

.c0 .column.left {
  -webkit-flex-basis: 100%;
  -ms-flex-preferred-size: 100%;
  flex-basis: 100%;
  position: relative;
}

.c0 .column.right {
  -webkit-flex-basis: 300px;
  -ms-flex-preferred-size: 300px;
  flex-basis: 300px;
}

.c0 .column.right .option-label {
  text-align: right;
  padding-right: 25px;
}

.c0 .column.right .ctx-search > div:nth-child(3) {
  right: -25px;
  top: 50px;
  border: 1px solid #E3E5E9;
  border-radius: 4px;
}

.c0 .column.right > div {
  width: auto;
  margin: auto;
}

.c0 .column.right > div > div:nth-of-type(2) {
  box-shadow: none;
  padding-bottom: 12px;
}

<div>
  <div
    class="c0"
  >
    <div
      class="ac-input-wrapper"
    >
      <div
        class="c1 search-autocomplete"
      >
        <div
          class="c2 icon-left floated-label"
        >
          <label
            class="input__parent"
          >
            <span
              class="input__label--hidden"
            >
              Search by SKU Number, Category, or Collections
            </span>
            <div
              class="input__wrapper"
            >
              <input
                class="c3"
                dir="ltr"
                placeholder="Search by SKU Number, Category, or Collections"
                value=""
              />
              <span
                class="icon right"
              >
                <svg
                  fill="none"
                  height="21"
                  viewBox="0 0 21 21"
                  width="21"
                  xmlns="http://www.w3.org/2000/svg"
                >
                  <path
                    d="M7.24512 0.0839844C6.58729 0.0839844 5.95321 0.168755 5.34285 0.338298C4.7325 0.50784 4.16284 0.748589 3.63387 1.06055C3.1049 1.3725 2.6234 1.7455 2.18937 2.17952C1.75534 2.61355 1.37896 3.09844 1.06022 3.6342C0.741482 4.16995 0.500732 4.73961 0.337971 5.34318C0.175211 5.94675 0.0904408 6.58084 0.0836582 7.24544C0.0836582 7.90327 0.168428 8.53735 0.337971 9.14771C0.507513 9.75806 0.748262 10.3277 1.06022 10.8567C1.37218 11.3857 1.74517 11.8672 2.1792 12.3012C2.61323 12.7352 3.09812 13.1116 3.63387 13.4303C4.16962 13.7491 4.73928 13.9898 5.34285 14.1526C5.94642 14.3153 6.58051 14.4001 7.24512 14.4069C8.09283 14.4069 8.90324 14.2645 9.67635 13.9797C10.4495 13.6948 11.1649 13.2845 11.8228 12.7488L19.8082 20.724C19.937 20.8529 20.0896 20.9173 20.266 20.9173C20.4423 20.9173 20.5949 20.8529 20.7237 20.724C20.8526 20.5952 20.917 20.4426 20.917 20.2663C20.917 20.09 20.8526 19.9374 20.7237 19.8085L12.7485 11.8231C13.2842 11.172 13.6945 10.46 13.9793 9.68685C14.2642 8.91374 14.4066 8.09994 14.4066 7.24544C14.4066 6.58762 14.3218 5.95353 14.1523 5.34318C13.9827 4.73283 13.742 4.16317 13.43 3.6342C13.1181 3.10522 12.7451 2.62373 12.311 2.1897C11.877 1.75567 11.3921 1.37929 10.8564 1.06055C10.3206 0.741808 9.75095 0.501058 9.14738 0.338298C8.54381 0.175537 7.90972 0.0907661 7.24512 0.0839844ZM7.24512 13.1048C6.4381 13.1048 5.67855 12.9522 4.96647 12.6471C4.25439 12.3419 3.63387 11.9214 3.1049 11.3857C2.57593 10.8499 2.15885 10.2294 1.85368 9.52409C1.5485 8.81879 1.39252 8.05925 1.38574 7.24544C1.38574 6.43842 1.53833 5.67887 1.84351 4.9668C2.14868 4.25472 2.56915 3.6342 3.1049 3.10522C3.64065 2.57625 4.26118 2.15918 4.96647 1.854C5.67177 1.54883 6.43131 1.39285 7.24512 1.38607C8.05214 1.38607 8.81169 1.53866 9.52376 1.84383C10.2358 2.14901 10.8564 2.56947 11.3853 3.10522C11.9143 3.64098 12.3314 4.2615 12.6366 4.9668C12.9417 5.67209 13.0977 6.43164 13.1045 7.24544C13.1045 8.05246 12.9519 8.81201 12.6467 9.52409C12.3416 10.2362 11.9211 10.8567 11.3853 11.3857C10.8496 11.9146 10.2291 12.3317 9.52376 12.6369C8.81847 12.9421 8.05892 13.098 7.24512 13.1048Z"
                    fill="#121213"
                  />
                </svg>
              </span>
            </div>
          </label>
        </div>
      </div>
    </div>
  </div>
</div>
`;

exports[`<AutoComplete/> should show loading pop up 1`] = `
.c5 {
  padding: 5px;
}

.c1 {
  -webkit-flex: 1;
  -ms-flex: 1;
  flex: 1;
  box-sizing: border-box;
  font-family: Gilroy-Medium;
}

.c1 .error {
  margin-top: 4px;
  margin-left: 1px;
  font-size: 12px;
  font-family: 'Gilroy','Gilroy-Regular';
  -webkit-letter-spacing: 0px;
  -moz-letter-spacing: 0px;
  -ms-letter-spacing: 0px;
  letter-spacing: 0px;
  line-height: 14px;
  font-style: normal;
  css: font-size:12px;
  font-family: 'Gilroy','Gilroy-Regular';
  -webkit-letter-spacing: 0px;
  -moz-letter-spacing: 0px;
  -ms-letter-spacing: 0px;
  letter-spacing: 0px;
  line-height: 14px;
  font-style: normal;
  font-family: Gilroy-Medium;
  color: #D50000;
}

.c2 {
  display: -webkit-box;
  display: -webkit-flex;
  display: -ms-flexbox;
  display: flex;
  -webkit-box-pack: center;
  -webkit-justify-content: center;
  -ms-flex-pack: center;
  justify-content: center;
  -webkit-align-items: center;
  -webkit-box-align: center;
  -ms-flex-align: center;
  align-items: center;
  width: 100%;
  position: relative;
}

.c2 * {
  box-sizing: border-box;
}

.c2 .input__parent {
  width: 100%;
}

.c2.password input {
  padding-right: 50px !important;
}

.c2.password .show-pass svg path {
  fill: #121213;
}

.c2.floated-label:not(.disabled):hover .input__wrapper {
  border-bottom: 1px solid #121213;
}

.c2.floated-label .input__parent {
  padding-top: 10px;
}

.c2.floated-label .input__label {
  position: absolute;
  top: 26px;
  color: #64707D;
}

.c2.floated-label .input__wrapper {
  display: -webkit-box;
  display: -webkit-flex;
  display: -ms-flexbox;
  display: flex;
  -webkit-align-items: center;
  -webkit-box-align: center;
  -ms-flex-align: center;
  align-items: center;
  border-bottom: 1px solid #64707D;
}

.c2.floated-label .input__wrapper .icon {
  position: static;
  -webkit-transform: none;
  -ms-transform: none;
  transform: none;
  font-size: 13px;
  width: -webkit-max-content;
  width: -moz-max-content;
  width: max-content;
  color: #121213;
}

.c2.floated-label .input__wrapper .icon.left {
  padding-right: 5px;
}

.c2.floated-label .input__wrapper .icon.right {
  padding-left: 5px;
}

.c2.floated-label .input__wrapper input {
  padding: 16px 0px 16px;
  border: none;
}

.c2.floated-label .input__wrapper input::-webkit-input-placeholder {
  color: transparent;
}

.c2.floated-label .input__wrapper input::-moz-placeholder {
  color: transparent;
}

.c2.floated-label .input__wrapper input:-ms-input-placeholder {
  color: transparent;
}

.c2.floated-label .input__wrapper input::placeholder {
  color: transparent;
}

.c2.floated-label.container_focus .input__label,
.c2.floated-label.filled .input__label,
.c2.floated-label.has_prefix .input__label {
  top: 2px;
  color: #64707D;
}

.c2.floated-label.container_focus:not(.disabled) .input__wrapper {
  border-bottom: 1px solid #0D62FF;
}

.c2.floated-label.filled.disabled .input__parent span,
.c2.floated-label.filled.disabled .input__parent input {
  opacity: 1;
  font-family: 'Gilroy-Regular';
  color: #A0A0A1;
}

.c2.boxed .input__label {
  padding-bottom: 5px;
}

.c2.container_error:not(.disabled) .input__wrapper {
  border-color: #D50000;
}

.c2.disabled .input__label {
  color: #A0A0A1;
}

.c2 .input_parent {
  -webkit-flex-wrap: wrap;
  -ms-flex-wrap: wrap;
  flex-wrap: wrap;
  display: -webkit-box;
  display: -webkit-flex;
  display: -ms-flexbox;
  display: flex;
  width: 100%;
  height: 100%;
  position: relative;
  -webkit-flex: 0 1 auto;
  -ms-flex: 0 1 auto;
  flex: 0 1 auto;
  padding: 0 0.75rem;
  padding-top: 15px;
}

.c2 .input__label {
  width: 100%;
  font-size: 13px;
  font-weight: normal;
  display: -webkit-box;
  display: -webkit-flex;
  display: -ms-flexbox;
  display: flex;
  -webkit-flex-flow: row nowrap;
  -ms-flex-flow: row nowrap;
  flex-flow: row nowrap;
  z-index: 1;
  box-sizing: border-box;
  position: absolute;
  top: 0px;
  -webkit-transition: 0.2s;
  transition: 0.2s;
  -webkit-letter-spacing: 0.02em;
  -moz-letter-spacing: 0.02em;
  -ms-letter-spacing: 0.02em;
  letter-spacing: 0.02em;
  white-space: nowrap;
}

.c2 .input__label--hidden {
  position: absolute;
  text-indent: -9999px;
}

.c2 .input__label .label-text {
  float: left;
  overflow: hidden;
  text-overflow: ellipsis;
}

.c2 .input__label .locale-label {
  float: right;
  margin-left: auto;
}

.c2 .input__wrapper {
  position: relative;
}

.c2 .input__wrapper .icon {
  position: absolute;
  width: 20px;
  height: auto;
  top: 50%;
  -webkit-transform: translateY(-50%);
  -ms-transform: translateY(-50%);
  transform: translateY(-50%);
  left: 2px;
}

.c2 .input__wrapper .icon svg {
  vertical-align: middle;
}

.c2 .input__show {
  cursor: pointer;
  font-size: 0.675rem;
  -webkit-text-decoration: underline;
  text-decoration: underline;
  line-height: 1;
  font-weight: 300;
  position: absolute;
  top: 50%;
  -webkit-transform: translateY(-50%);
  -ms-transform: translateY(-50%);
  transform: translateY(-50%);
  right: 20px;
  width: auto;
}

.c2.icon-left input {
  padding-left: 35px;
}

.c2.sm.boxed.icon-left .icon .left {
  left: 10px;
}

.c2.sm.icon-left .icon {
  width: 14px;
  left: 10px;
}

.c2.sm input {
  padding-top: 11px;
  padding-bottom: 11px;
}

.c2.sm.icon-left input {
  padding-left: 40px;
}

.c2.md input {
  padding-top: 14px;
  padding-bottom: 12px;
}

.c3 {
  border: none;
  border-bottom: 1px #121213 solid;
  background-clip: padding-box;
  display: block;
  -webkit-box-sizing: border-box;
  box-sizing: border-box;
  width: 100%;
  padding-top: 16px;
  padding-bottom: 16px;
  word-break: normal;
  line-height: initial;
  -webkit-transition: all 0.2s ease-out;
  transition: all 0.2s ease-out;
  outline: none;
  -webkit-letter-spacing: 0.02em;
  -moz-letter-spacing: 0.02em;
  -ms-letter-spacing: 0.02em;
  letter-spacing: 0.02em;
  font-size: 13px;
  background-color: #FFFFFF !important;
}

.c3:disabled {
  pointer-events: none;
  opacity: 0.5;
  color: inherit;
}

.c3.custom {
  padding: 0px;
  margin: 0px;
}

.c3.custom:focus {
  border: none;
  padding: none;
}

.c3:-webkit-autofill {
  -webkit-animation-name: jYsTcq;
  animation-name: jYsTcq;
  -webkit-transition: background-color 50000s ease-in-out 0s;
  transition: background-color 50000s ease-in-out 0s;
}

.c0 {
  display: -webkit-box;
  display: -webkit-flex;
  display: -ms-flexbox;
  display: flex;
  box-shadow: 0px 5px 20px rgba(115,127,143,0.1);
  background-color: #ffffff;
  border-radius: 50px;
  box-sizing: border-box;
  padding: 5px 25px;
  width: 100%;
  -webkit-align-items: center;
  -webkit-box-align: center;
  -ms-flex-align: center;
  align-items: center;
  position: relative;
  height: 50px;
}

.c0 .ac-input-wrapper {
  width: 100%;
  position: relative;
}

.c0 .ac-input-wrapper .ac-icon-right {
  position: absolute;
  right: 0px;
  top: 50%;
  -webkit-transform: translateY(-50%);
  -ms-transform: translateY(-50%);
  transform: translateY(-50%);
}

.c0 input {
  border: none;
}

.c0 .column.left {
  -webkit-flex-basis: 100%;
  -ms-flex-preferred-size: 100%;
  flex-basis: 100%;
  position: relative;
}

.c0 .column.right {
  -webkit-flex-basis: 300px;
  -ms-flex-preferred-size: 300px;
  flex-basis: 300px;
}

.c0 .column.right .option-label {
  text-align: right;
  padding-right: 25px;
}

.c0 .column.right .ctx-search > div:nth-child(3) {
  right: -25px;
  top: 50px;
  border: 1px solid #E3E5E9;
  border-radius: 4px;
}

.c0 .column.right > div {
  width: auto;
  margin: auto;
}

.c0 .column.right > div > div:nth-of-type(2) {
  box-shadow: none;
  padding-bottom: 12px;
}

.c4 {
  position: absolute;
  left: 0;
  right: 0;
  top: 52px;
  background-color: #FFFFFF;
  border: 1px solid #F1F2F4;
  box-sizing: border-box;
  box-shadow: 0px 6px 16px rgba(115,127,143,0.16);
  border-radius: 4px;
  padding: 32px;
  z-index: 9;
}

.c4 .autocomplete-loader {
  text-align: center;
}

.c4 .head {
  display: -webkit-box;
  display: -webkit-flex;
  display: -ms-flexbox;
  display: flex;
}

.c4 .head .col {
  -webkit-flex: 1;
  -ms-flex: 1;
  flex: 1;
}

.c4 .head .col.right {
  text-align: right;
}

.c4 .content .rows {
  display: -webkit-box;
  display: -webkit-flex;
  display: -ms-flexbox;
  display: flex;
  -webkit-align-items: center;
  -webkit-box-align: center;
  -ms-flex-align: center;
  align-items: center;
  border-bottom: 1px solid #E3E5E9;
  padding: 16px 0px;
  cursor: pointer;
  font-size: 13px;
}

.c4 .content .rows .cols {
  padding-right: 20px;
}

.c4 .content .rows .cols img {
  vertical-align: top;
  border-radius: 4px;
}

.c4 .content .rows .cols.img {
  min-width: 36px;
}

.c4 .content .rows .cols.sku {
  color: #121213;
}

.c4 .content .rows .cols.name {
  color: #0D62FF;
}

.c4 .content .rows .cols.tags {
  color: #64707D;
}

.c4 .content .rows .cols:last-child {
  padding-right: 0px;
}

<div>
  <div
    class="c0"
  >
    <div
      class="ac-input-wrapper"
    >
      <div
        class="c1 search-autocomplete"
      >
        <div
          class="c2 icon-left floated-label"
          value="something"
        >
          <label
            class="input__parent"
          >
            <span
              class="input__label--hidden"
            >
              Search by SKU Number, Category, or Collections
            </span>
            <div
              class="input__wrapper"
            >
              <input
                class="c3"
                dir="ltr"
                placeholder="Search by SKU Number, Category, or Collections"
                value=""
              />
              <span
                class="icon right"
              >
                <svg
                  fill="none"
                  height="21"
                  viewBox="0 0 21 21"
                  width="21"
                  xmlns="http://www.w3.org/2000/svg"
                >
                  <path
                    d="M7.24512 0.0839844C6.58729 0.0839844 5.95321 0.168755 5.34285 0.338298C4.7325 0.50784 4.16284 0.748589 3.63387 1.06055C3.1049 1.3725 2.6234 1.7455 2.18937 2.17952C1.75534 2.61355 1.37896 3.09844 1.06022 3.6342C0.741482 4.16995 0.500732 4.73961 0.337971 5.34318C0.175211 5.94675 0.0904408 6.58084 0.0836582 7.24544C0.0836582 7.90327 0.168428 8.53735 0.337971 9.14771C0.507513 9.75806 0.748262 10.3277 1.06022 10.8567C1.37218 11.3857 1.74517 11.8672 2.1792 12.3012C2.61323 12.7352 3.09812 13.1116 3.63387 13.4303C4.16962 13.7491 4.73928 13.9898 5.34285 14.1526C5.94642 14.3153 6.58051 14.4001 7.24512 14.4069C8.09283 14.4069 8.90324 14.2645 9.67635 13.9797C10.4495 13.6948 11.1649 13.2845 11.8228 12.7488L19.8082 20.724C19.937 20.8529 20.0896 20.9173 20.266 20.9173C20.4423 20.9173 20.5949 20.8529 20.7237 20.724C20.8526 20.5952 20.917 20.4426 20.917 20.2663C20.917 20.09 20.8526 19.9374 20.7237 19.8085L12.7485 11.8231C13.2842 11.172 13.6945 10.46 13.9793 9.68685C14.2642 8.91374 14.4066 8.09994 14.4066 7.24544C14.4066 6.58762 14.3218 5.95353 14.1523 5.34318C13.9827 4.73283 13.742 4.16317 13.43 3.6342C13.1181 3.10522 12.7451 2.62373 12.311 2.1897C11.877 1.75567 11.3921 1.37929 10.8564 1.06055C10.3206 0.741808 9.75095 0.501058 9.14738 0.338298C8.54381 0.175537 7.90972 0.0907661 7.24512 0.0839844ZM7.24512 13.1048C6.4381 13.1048 5.67855 12.9522 4.96647 12.6471C4.25439 12.3419 3.63387 11.9214 3.1049 11.3857C2.57593 10.8499 2.15885 10.2294 1.85368 9.52409C1.5485 8.81879 1.39252 8.05925 1.38574 7.24544C1.38574 6.43842 1.53833 5.67887 1.84351 4.9668C2.14868 4.25472 2.56915 3.6342 3.1049 3.10522C3.64065 2.57625 4.26118 2.15918 4.96647 1.854C5.67177 1.54883 6.43131 1.39285 7.24512 1.38607C8.05214 1.38607 8.81169 1.53866 9.52376 1.84383C10.2358 2.14901 10.8564 2.56947 11.3853 3.10522C11.9143 3.64098 12.3314 4.2615 12.6366 4.9668C12.9417 5.67209 13.0977 6.43164 13.1045 7.24544C13.1045 8.05246 12.9519 8.81201 12.6467 9.52409C12.3416 10.2362 11.9211 10.8567 11.3853 11.3857C10.8496 11.9146 10.2291 12.3317 9.52376 12.6369C8.81847 12.9421 8.05892 13.098 7.24512 13.1048Z"
                    fill="#121213"
                  />
                </svg>
              </span>
            </div>
          </label>
        </div>
      </div>
    </div>
    <div
      class="c4"
    >
      <div
        class="c5 autocomplete-loader"
      >
        <svg
          height="44px"
          preserveAspectRatio="xMidYMid"
          viewBox="0 0 100 100"
          width="44px"
          xmlns="http://www.w3.org/2000/svg"
        >
          <circle
            cx="50"
            cy="50"
            fill="none"
            r="40"
            stroke="#64707D"
            stroke-dasharray="188.49555921538757 64.83185307179586"
            stroke-width="10"
          >
            <animatetransform
              attributeName="transform"
              dur="1.1904761904761905s"
              keyTimes="0;1"
              repeatCount="indefinite"
              type="rotate"
              values="0 50 50;360 50 50"
            />
          </circle>
        </svg>
      </div>
    </div>
  </div>
</div>
`;

exports[`<AutoComplete/> should show pop up given value length > 0 1`] = `
.c1 {
  -webkit-flex: 1;
  -ms-flex: 1;
  flex: 1;
  box-sizing: border-box;
  font-family: Gilroy-Medium;
}

.c1 .error {
  margin-top: 4px;
  margin-left: 1px;
  font-size: 12px;
  font-family: 'Gilroy','Gilroy-Regular';
  -webkit-letter-spacing: 0px;
  -moz-letter-spacing: 0px;
  -ms-letter-spacing: 0px;
  letter-spacing: 0px;
  line-height: 14px;
  font-style: normal;
  css: font-size:12px;
  font-family: 'Gilroy','Gilroy-Regular';
  -webkit-letter-spacing: 0px;
  -moz-letter-spacing: 0px;
  -ms-letter-spacing: 0px;
  letter-spacing: 0px;
  line-height: 14px;
  font-style: normal;
  font-family: Gilroy-Medium;
  color: #D50000;
}

.c2 {
  display: -webkit-box;
  display: -webkit-flex;
  display: -ms-flexbox;
  display: flex;
  -webkit-box-pack: center;
  -webkit-justify-content: center;
  -ms-flex-pack: center;
  justify-content: center;
  -webkit-align-items: center;
  -webkit-box-align: center;
  -ms-flex-align: center;
  align-items: center;
  width: 100%;
  position: relative;
}

.c2 * {
  box-sizing: border-box;
}

.c2 .input__parent {
  width: 100%;
}

.c2.password input {
  padding-right: 50px !important;
}

.c2.password .show-pass svg path {
  fill: #121213;
}

.c2.floated-label:not(.disabled):hover .input__wrapper {
  border-bottom: 1px solid #121213;
}

.c2.floated-label .input__parent {
  padding-top: 10px;
}

.c2.floated-label .input__label {
  position: absolute;
  top: 26px;
  color: #64707D;
}

.c2.floated-label .input__wrapper {
  display: -webkit-box;
  display: -webkit-flex;
  display: -ms-flexbox;
  display: flex;
  -webkit-align-items: center;
  -webkit-box-align: center;
  -ms-flex-align: center;
  align-items: center;
  border-bottom: 1px solid #64707D;
}

.c2.floated-label .input__wrapper .icon {
  position: static;
  -webkit-transform: none;
  -ms-transform: none;
  transform: none;
  font-size: 13px;
  width: -webkit-max-content;
  width: -moz-max-content;
  width: max-content;
  color: #121213;
}

.c2.floated-label .input__wrapper .icon.left {
  padding-right: 5px;
}

.c2.floated-label .input__wrapper .icon.right {
  padding-left: 5px;
}

.c2.floated-label .input__wrapper input {
  padding: 16px 0px 16px;
  border: none;
}

.c2.floated-label .input__wrapper input::-webkit-input-placeholder {
  color: transparent;
}

.c2.floated-label .input__wrapper input::-moz-placeholder {
  color: transparent;
}

.c2.floated-label .input__wrapper input:-ms-input-placeholder {
  color: transparent;
}

.c2.floated-label .input__wrapper input::placeholder {
  color: transparent;
}

.c2.floated-label.container_focus .input__label,
.c2.floated-label.filled .input__label,
.c2.floated-label.has_prefix .input__label {
  top: 2px;
  color: #64707D;
}

.c2.floated-label.container_focus:not(.disabled) .input__wrapper {
  border-bottom: 1px solid #0D62FF;
}

.c2.floated-label.filled.disabled .input__parent span,
.c2.floated-label.filled.disabled .input__parent input {
  opacity: 1;
  font-family: 'Gilroy-Regular';
  color: #A0A0A1;
}

.c2.boxed .input__label {
  padding-bottom: 5px;
}

.c2.container_error:not(.disabled) .input__wrapper {
  border-color: #D50000;
}

.c2.disabled .input__label {
  color: #A0A0A1;
}

.c2 .input_parent {
  -webkit-flex-wrap: wrap;
  -ms-flex-wrap: wrap;
  flex-wrap: wrap;
  display: -webkit-box;
  display: -webkit-flex;
  display: -ms-flexbox;
  display: flex;
  width: 100%;
  height: 100%;
  position: relative;
  -webkit-flex: 0 1 auto;
  -ms-flex: 0 1 auto;
  flex: 0 1 auto;
  padding: 0 0.75rem;
  padding-top: 15px;
}

.c2 .input__label {
  width: 100%;
  font-size: 13px;
  font-weight: normal;
  display: -webkit-box;
  display: -webkit-flex;
  display: -ms-flexbox;
  display: flex;
  -webkit-flex-flow: row nowrap;
  -ms-flex-flow: row nowrap;
  flex-flow: row nowrap;
  z-index: 1;
  box-sizing: border-box;
  position: absolute;
  top: 0px;
  -webkit-transition: 0.2s;
  transition: 0.2s;
  -webkit-letter-spacing: 0.02em;
  -moz-letter-spacing: 0.02em;
  -ms-letter-spacing: 0.02em;
  letter-spacing: 0.02em;
  white-space: nowrap;
}

.c2 .input__label--hidden {
  position: absolute;
  text-indent: -9999px;
}

.c2 .input__label .label-text {
  float: left;
  overflow: hidden;
  text-overflow: ellipsis;
}

.c2 .input__label .locale-label {
  float: right;
  margin-left: auto;
}

.c2 .input__wrapper {
  position: relative;
}

.c2 .input__wrapper .icon {
  position: absolute;
  width: 20px;
  height: auto;
  top: 50%;
  -webkit-transform: translateY(-50%);
  -ms-transform: translateY(-50%);
  transform: translateY(-50%);
  left: 2px;
}

.c2 .input__wrapper .icon svg {
  vertical-align: middle;
}

.c2 .input__show {
  cursor: pointer;
  font-size: 0.675rem;
  -webkit-text-decoration: underline;
  text-decoration: underline;
  line-height: 1;
  font-weight: 300;
  position: absolute;
  top: 50%;
  -webkit-transform: translateY(-50%);
  -ms-transform: translateY(-50%);
  transform: translateY(-50%);
  right: 20px;
  width: auto;
}

.c2.icon-left input {
  padding-left: 35px;
}

.c2.sm.boxed.icon-left .icon .left {
  left: 10px;
}

.c2.sm.icon-left .icon {
  width: 14px;
  left: 10px;
}

.c2.sm input {
  padding-top: 11px;
  padding-bottom: 11px;
}

.c2.sm.icon-left input {
  padding-left: 40px;
}

.c2.md input {
  padding-top: 14px;
  padding-bottom: 12px;
}

.c3 {
  border: none;
  border-bottom: 1px #121213 solid;
  background-clip: padding-box;
  display: block;
  -webkit-box-sizing: border-box;
  box-sizing: border-box;
  width: 100%;
  padding-top: 16px;
  padding-bottom: 16px;
  word-break: normal;
  line-height: initial;
  -webkit-transition: all 0.2s ease-out;
  transition: all 0.2s ease-out;
  outline: none;
  -webkit-letter-spacing: 0.02em;
  -moz-letter-spacing: 0.02em;
  -ms-letter-spacing: 0.02em;
  letter-spacing: 0.02em;
  font-size: 13px;
  background-color: #FFFFFF !important;
}

.c3:disabled {
  pointer-events: none;
  opacity: 0.5;
  color: inherit;
}

.c3.custom {
  padding: 0px;
  margin: 0px;
}

.c3.custom:focus {
  border: none;
  padding: none;
}

.c3:-webkit-autofill {
  -webkit-animation-name: jYsTcq;
  animation-name: jYsTcq;
  -webkit-transition: background-color 50000s ease-in-out 0s;
  transition: background-color 50000s ease-in-out 0s;
}

.c0 {
  display: -webkit-box;
  display: -webkit-flex;
  display: -ms-flexbox;
  display: flex;
  box-shadow: 0px 5px 20px rgba(115,127,143,0.1);
  background-color: #ffffff;
  border-radius: 50px;
  box-sizing: border-box;
  padding: 5px 25px;
  width: 100%;
  -webkit-align-items: center;
  -webkit-box-align: center;
  -ms-flex-align: center;
  align-items: center;
  position: relative;
  height: 50px;
}

.c0 .ac-input-wrapper {
  width: 100%;
  position: relative;
}

.c0 .ac-input-wrapper .ac-icon-right {
  position: absolute;
  right: 0px;
  top: 50%;
  -webkit-transform: translateY(-50%);
  -ms-transform: translateY(-50%);
  transform: translateY(-50%);
}

.c0 input {
  border: none;
}

.c0 .column.left {
  -webkit-flex-basis: 100%;
  -ms-flex-preferred-size: 100%;
  flex-basis: 100%;
  position: relative;
}

.c0 .column.right {
  -webkit-flex-basis: 300px;
  -ms-flex-preferred-size: 300px;
  flex-basis: 300px;
}

.c0 .column.right .option-label {
  text-align: right;
  padding-right: 25px;
}

.c0 .column.right .ctx-search > div:nth-child(3) {
  right: -25px;
  top: 50px;
  border: 1px solid #E3E5E9;
  border-radius: 4px;
}

.c0 .column.right > div {
  width: auto;
  margin: auto;
}

.c0 .column.right > div > div:nth-of-type(2) {
  box-shadow: none;
  padding-bottom: 12px;
}

.c4 {
  position: absolute;
  left: 0;
  right: 0;
  top: 52px;
  background-color: #FFFFFF;
  border: 1px solid #F1F2F4;
  box-sizing: border-box;
  box-shadow: 0px 6px 16px rgba(115,127,143,0.16);
  border-radius: 4px;
  padding: 32px;
  z-index: 9;
}

.c4 .autocomplete-loader {
  text-align: center;
}

.c4 .head {
  display: -webkit-box;
  display: -webkit-flex;
  display: -ms-flexbox;
  display: flex;
}

.c4 .head .col {
  -webkit-flex: 1;
  -ms-flex: 1;
  flex: 1;
}

.c4 .head .col.right {
  text-align: right;
}

.c4 .content .rows {
  display: -webkit-box;
  display: -webkit-flex;
  display: -ms-flexbox;
  display: flex;
  -webkit-align-items: center;
  -webkit-box-align: center;
  -ms-flex-align: center;
  align-items: center;
  border-bottom: 1px solid #E3E5E9;
  padding: 16px 0px;
  cursor: pointer;
  font-size: 13px;
}

.c4 .content .rows .cols {
  padding-right: 20px;
}

.c4 .content .rows .cols img {
  vertical-align: top;
  border-radius: 4px;
}

.c4 .content .rows .cols.img {
  min-width: 36px;
}

.c4 .content .rows .cols.sku {
  color: #121213;
}

.c4 .content .rows .cols.name {
  color: #0D62FF;
}

.c4 .content .rows .cols.tags {
  color: #64707D;
}

.c4 .content .rows .cols:last-child {
  padding-right: 0px;
}

<div>
  <div
    class="c0"
  >
    <div
      class="ac-input-wrapper"
    >
      <div
        class="c1 search-autocomplete"
      >
        <div
          class="c2 icon-left floated-label"
          value="something"
        >
          <label
            class="input__parent"
          >
            <span
              class="input__label--hidden"
            >
              Search by SKU Number, Category, or Collections
            </span>
            <div
              class="input__wrapper"
            >
              <input
                class="c3"
                dir="ltr"
                placeholder="Search by SKU Number, Category, or Collections"
                value=""
              />
              <span
                class="icon right"
              >
                <svg
                  fill="none"
                  height="21"
                  viewBox="0 0 21 21"
                  width="21"
                  xmlns="http://www.w3.org/2000/svg"
                >
                  <path
                    d="M7.24512 0.0839844C6.58729 0.0839844 5.95321 0.168755 5.34285 0.338298C4.7325 0.50784 4.16284 0.748589 3.63387 1.06055C3.1049 1.3725 2.6234 1.7455 2.18937 2.17952C1.75534 2.61355 1.37896 3.09844 1.06022 3.6342C0.741482 4.16995 0.500732 4.73961 0.337971 5.34318C0.175211 5.94675 0.0904408 6.58084 0.0836582 7.24544C0.0836582 7.90327 0.168428 8.53735 0.337971 9.14771C0.507513 9.75806 0.748262 10.3277 1.06022 10.8567C1.37218 11.3857 1.74517 11.8672 2.1792 12.3012C2.61323 12.7352 3.09812 13.1116 3.63387 13.4303C4.16962 13.7491 4.73928 13.9898 5.34285 14.1526C5.94642 14.3153 6.58051 14.4001 7.24512 14.4069C8.09283 14.4069 8.90324 14.2645 9.67635 13.9797C10.4495 13.6948 11.1649 13.2845 11.8228 12.7488L19.8082 20.724C19.937 20.8529 20.0896 20.9173 20.266 20.9173C20.4423 20.9173 20.5949 20.8529 20.7237 20.724C20.8526 20.5952 20.917 20.4426 20.917 20.2663C20.917 20.09 20.8526 19.9374 20.7237 19.8085L12.7485 11.8231C13.2842 11.172 13.6945 10.46 13.9793 9.68685C14.2642 8.91374 14.4066 8.09994 14.4066 7.24544C14.4066 6.58762 14.3218 5.95353 14.1523 5.34318C13.9827 4.73283 13.742 4.16317 13.43 3.6342C13.1181 3.10522 12.7451 2.62373 12.311 2.1897C11.877 1.75567 11.3921 1.37929 10.8564 1.06055C10.3206 0.741808 9.75095 0.501058 9.14738 0.338298C8.54381 0.175537 7.90972 0.0907661 7.24512 0.0839844ZM7.24512 13.1048C6.4381 13.1048 5.67855 12.9522 4.96647 12.6471C4.25439 12.3419 3.63387 11.9214 3.1049 11.3857C2.57593 10.8499 2.15885 10.2294 1.85368 9.52409C1.5485 8.81879 1.39252 8.05925 1.38574 7.24544C1.38574 6.43842 1.53833 5.67887 1.84351 4.9668C2.14868 4.25472 2.56915 3.6342 3.1049 3.10522C3.64065 2.57625 4.26118 2.15918 4.96647 1.854C5.67177 1.54883 6.43131 1.39285 7.24512 1.38607C8.05214 1.38607 8.81169 1.53866 9.52376 1.84383C10.2358 2.14901 10.8564 2.56947 11.3853 3.10522C11.9143 3.64098 12.3314 4.2615 12.6366 4.9668C12.9417 5.67209 13.0977 6.43164 13.1045 7.24544C13.1045 8.05246 12.9519 8.81201 12.6467 9.52409C12.3416 10.2362 11.9211 10.8567 11.3853 11.3857C10.8496 11.9146 10.2291 12.3317 9.52376 12.6369C8.81847 12.9421 8.05892 13.098 7.24512 13.1048Z"
                    fill="#121213"
                  />
                </svg>
              </span>
            </div>
          </label>
        </div>
      </div>
    </div>
    <div
      class="c4"
    >
      <div
        class="head"
      >
        <div
          class="col left"
        >
          SKU
        </div>
        <div
          class="col right"
        />
      </div>
      <div
        class="content"
      >
        <div
          class="rows"
        >
          <div
            class="cols img"
          >
            <img
              alt="Energy and Metabolism"
              src="https://via.placeholder.com/36x36"
            />
          </div>
          <div
            class="cols sku"
          >
            0200388292
          </div>
          <div
            class="cols name"
          >
            Energy and Metabolism
          </div>
          <div
            class="cols tags"
          >
            PIM / Women / Multivitamins
          </div>
        </div>
        <div
          class="rows"
        >
          <div
            class="cols img"
          >
            <img
              alt="Energy and Metabolism Plus"
              src="https://via.placeholder.com/36x36"
            />
          </div>
          <div
            class="cols sku"
          >
            0200388292
          </div>
          <div
            class="cols name"
          >
            Energy and Metabolism Plus
          </div>
          <div
            class="cols tags"
          >
            PIM / Women / Multivitamins
          </div>
        </div>
        <div
          class="rows"
        >
          <div
            class="cols img"
          >
            <img
              alt="Energy and Metabolism Sport"
              src="https://via.placeholder.com/36x36"
            />
          </div>
          <div
            class="cols sku"
          >
            0200388292
          </div>
          <div
            class="cols name"
          >
            Energy and Metabolism Sport
          </div>
          <div
            class="cols tags"
          >
            PIM / Women / Multivitamins
          </div>
        </div>
      </div>
    </div>
  </div>
</div>
`;

exports[`<AutoComplete/> should show the custom children 1`] = `
.c1 {
  -webkit-flex: 1;
  -ms-flex: 1;
  flex: 1;
  box-sizing: border-box;
  font-family: Gilroy-Medium;
}

.c1 .error {
  margin-top: 4px;
  margin-left: 1px;
  font-size: 12px;
  font-family: 'Gilroy','Gilroy-Regular';
  -webkit-letter-spacing: 0px;
  -moz-letter-spacing: 0px;
  -ms-letter-spacing: 0px;
  letter-spacing: 0px;
  line-height: 14px;
  font-style: normal;
  css: font-size:12px;
  font-family: 'Gilroy','Gilroy-Regular';
  -webkit-letter-spacing: 0px;
  -moz-letter-spacing: 0px;
  -ms-letter-spacing: 0px;
  letter-spacing: 0px;
  line-height: 14px;
  font-style: normal;
  font-family: Gilroy-Medium;
  color: #D50000;
}

.c2 {
  display: -webkit-box;
  display: -webkit-flex;
  display: -ms-flexbox;
  display: flex;
  -webkit-box-pack: center;
  -webkit-justify-content: center;
  -ms-flex-pack: center;
  justify-content: center;
  -webkit-align-items: center;
  -webkit-box-align: center;
  -ms-flex-align: center;
  align-items: center;
  width: 100%;
  position: relative;
}

.c2 * {
  box-sizing: border-box;
}

.c2 .input__parent {
  width: 100%;
}

.c2.password input {
  padding-right: 50px !important;
}

.c2.password .show-pass svg path {
  fill: #121213;
}

.c2.floated-label:not(.disabled):hover .input__wrapper {
  border-bottom: 1px solid #121213;
}

.c2.floated-label .input__parent {
  padding-top: 10px;
}

.c2.floated-label .input__label {
  position: absolute;
  top: 26px;
  color: #64707D;
}

.c2.floated-label .input__wrapper {
  display: -webkit-box;
  display: -webkit-flex;
  display: -ms-flexbox;
  display: flex;
  -webkit-align-items: center;
  -webkit-box-align: center;
  -ms-flex-align: center;
  align-items: center;
  border-bottom: 1px solid #64707D;
}

.c2.floated-label .input__wrapper .icon {
  position: static;
  -webkit-transform: none;
  -ms-transform: none;
  transform: none;
  font-size: 13px;
  width: -webkit-max-content;
  width: -moz-max-content;
  width: max-content;
  color: #121213;
}

.c2.floated-label .input__wrapper .icon.left {
  padding-right: 5px;
}

.c2.floated-label .input__wrapper .icon.right {
  padding-left: 5px;
}

.c2.floated-label .input__wrapper input {
  padding: 16px 0px 16px;
  border: none;
}

.c2.floated-label .input__wrapper input::-webkit-input-placeholder {
  color: transparent;
}

.c2.floated-label .input__wrapper input::-moz-placeholder {
  color: transparent;
}

.c2.floated-label .input__wrapper input:-ms-input-placeholder {
  color: transparent;
}

.c2.floated-label .input__wrapper input::placeholder {
  color: transparent;
}

.c2.floated-label.container_focus .input__label,
.c2.floated-label.filled .input__label,
.c2.floated-label.has_prefix .input__label {
  top: 2px;
  color: #64707D;
}

.c2.floated-label.container_focus:not(.disabled) .input__wrapper {
  border-bottom: 1px solid #0D62FF;
}

.c2.floated-label.filled.disabled .input__parent span,
.c2.floated-label.filled.disabled .input__parent input {
  opacity: 1;
  font-family: 'Gilroy-Regular';
  color: #A0A0A1;
}

.c2.boxed .input__label {
  padding-bottom: 5px;
}

.c2.container_error:not(.disabled) .input__wrapper {
  border-color: #D50000;
}

.c2.disabled .input__label {
  color: #A0A0A1;
}

.c2 .input_parent {
  -webkit-flex-wrap: wrap;
  -ms-flex-wrap: wrap;
  flex-wrap: wrap;
  display: -webkit-box;
  display: -webkit-flex;
  display: -ms-flexbox;
  display: flex;
  width: 100%;
  height: 100%;
  position: relative;
  -webkit-flex: 0 1 auto;
  -ms-flex: 0 1 auto;
  flex: 0 1 auto;
  padding: 0 0.75rem;
  padding-top: 15px;
}

.c2 .input__label {
  width: 100%;
  font-size: 13px;
  font-weight: normal;
  display: -webkit-box;
  display: -webkit-flex;
  display: -ms-flexbox;
  display: flex;
  -webkit-flex-flow: row nowrap;
  -ms-flex-flow: row nowrap;
  flex-flow: row nowrap;
  z-index: 1;
  box-sizing: border-box;
  position: absolute;
  top: 0px;
  -webkit-transition: 0.2s;
  transition: 0.2s;
  -webkit-letter-spacing: 0.02em;
  -moz-letter-spacing: 0.02em;
  -ms-letter-spacing: 0.02em;
  letter-spacing: 0.02em;
  white-space: nowrap;
}

.c2 .input__label--hidden {
  position: absolute;
  text-indent: -9999px;
}

.c2 .input__label .label-text {
  float: left;
  overflow: hidden;
  text-overflow: ellipsis;
}

.c2 .input__label .locale-label {
  float: right;
  margin-left: auto;
}

.c2 .input__wrapper {
  position: relative;
}

.c2 .input__wrapper .icon {
  position: absolute;
  width: 20px;
  height: auto;
  top: 50%;
  -webkit-transform: translateY(-50%);
  -ms-transform: translateY(-50%);
  transform: translateY(-50%);
  left: 2px;
}

.c2 .input__wrapper .icon svg {
  vertical-align: middle;
}

.c2 .input__show {
  cursor: pointer;
  font-size: 0.675rem;
  -webkit-text-decoration: underline;
  text-decoration: underline;
  line-height: 1;
  font-weight: 300;
  position: absolute;
  top: 50%;
  -webkit-transform: translateY(-50%);
  -ms-transform: translateY(-50%);
  transform: translateY(-50%);
  right: 20px;
  width: auto;
}

.c2.icon-left input {
  padding-left: 35px;
}

.c2.sm.boxed.icon-left .icon .left {
  left: 10px;
}

.c2.sm.icon-left .icon {
  width: 14px;
  left: 10px;
}

.c2.sm input {
  padding-top: 11px;
  padding-bottom: 11px;
}

.c2.sm.icon-left input {
  padding-left: 40px;
}

.c2.md input {
  padding-top: 14px;
  padding-bottom: 12px;
}

.c3 {
  border: none;
  border-bottom: 1px #121213 solid;
  background-clip: padding-box;
  display: block;
  -webkit-box-sizing: border-box;
  box-sizing: border-box;
  width: 100%;
  padding-top: 16px;
  padding-bottom: 16px;
  word-break: normal;
  line-height: initial;
  -webkit-transition: all 0.2s ease-out;
  transition: all 0.2s ease-out;
  outline: none;
  -webkit-letter-spacing: 0.02em;
  -moz-letter-spacing: 0.02em;
  -ms-letter-spacing: 0.02em;
  letter-spacing: 0.02em;
  font-size: 13px;
  background-color: #FFFFFF !important;
}

.c3:disabled {
  pointer-events: none;
  opacity: 0.5;
  color: inherit;
}

.c3.custom {
  padding: 0px;
  margin: 0px;
}

.c3.custom:focus {
  border: none;
  padding: none;
}

.c3:-webkit-autofill {
  -webkit-animation-name: jYsTcq;
  animation-name: jYsTcq;
  -webkit-transition: background-color 50000s ease-in-out 0s;
  transition: background-color 50000s ease-in-out 0s;
}

.c0 {
  display: -webkit-box;
  display: -webkit-flex;
  display: -ms-flexbox;
  display: flex;
  box-shadow: 0px 5px 20px rgba(115,127,143,0.1);
  background-color: #ffffff;
  border-radius: 50px;
  box-sizing: border-box;
  padding: 5px 25px;
  width: 100%;
  -webkit-align-items: center;
  -webkit-box-align: center;
  -ms-flex-align: center;
  align-items: center;
  position: relative;
  height: 50px;
}

.c0 .ac-input-wrapper {
  width: 100%;
  position: relative;
}

.c0 .ac-input-wrapper .ac-icon-right {
  position: absolute;
  right: 0px;
  top: 50%;
  -webkit-transform: translateY(-50%);
  -ms-transform: translateY(-50%);
  transform: translateY(-50%);
}

.c0 input {
  border: none;
}

.c0 .column.left {
  -webkit-flex-basis: 100%;
  -ms-flex-preferred-size: 100%;
  flex-basis: 100%;
  position: relative;
}

.c0 .column.right {
  -webkit-flex-basis: 300px;
  -ms-flex-preferred-size: 300px;
  flex-basis: 300px;
}

.c0 .column.right .option-label {
  text-align: right;
  padding-right: 25px;
}

.c0 .column.right .ctx-search > div:nth-child(3) {
  right: -25px;
  top: 50px;
  border: 1px solid #E3E5E9;
  border-radius: 4px;
}

.c0 .column.right > div {
  width: auto;
  margin: auto;
}

.c0 .column.right > div > div:nth-of-type(2) {
  box-shadow: none;
  padding-bottom: 12px;
}

.c4 {
  position: absolute;
  left: 0;
  right: 0;
  top: 52px;
  background-color: #FFFFFF;
  border: 1px solid #F1F2F4;
  box-sizing: border-box;
  box-shadow: 0px 6px 16px rgba(115,127,143,0.16);
  border-radius: 4px;
  padding: 32px;
  z-index: 9;
}

.c4 .autocomplete-loader {
  text-align: center;
}

.c4 .head {
  display: -webkit-box;
  display: -webkit-flex;
  display: -ms-flexbox;
  display: flex;
}

.c4 .head .col {
  -webkit-flex: 1;
  -ms-flex: 1;
  flex: 1;
}

.c4 .head .col.right {
  text-align: right;
}

.c4 .content .rows {
  display: -webkit-box;
  display: -webkit-flex;
  display: -ms-flexbox;
  display: flex;
  -webkit-align-items: center;
  -webkit-box-align: center;
  -ms-flex-align: center;
  align-items: center;
  border-bottom: 1px solid #E3E5E9;
  padding: 16px 0px;
  cursor: pointer;
  font-size: 13px;
}

.c4 .content .rows .cols {
  padding-right: 20px;
}

.c4 .content .rows .cols img {
  vertical-align: top;
  border-radius: 4px;
}

.c4 .content .rows .cols.img {
  min-width: 36px;
}

.c4 .content .rows .cols.sku {
  color: #121213;
}

.c4 .content .rows .cols.name {
  color: #0D62FF;
}

.c4 .content .rows .cols.tags {
  color: #64707D;
}

.c4 .content .rows .cols:last-child {
  padding-right: 0px;
}

<div>
  <div
    class="c0"
  >
    <div
      class="ac-input-wrapper"
    >
      <div
        class="c1 search-autocomplete"
      >
        <div
          class="c2 icon-left floated-label"
          value="something"
        >
          <label
            class="input__parent"
          >
            <span
              class="input__label--hidden"
            >
              Search by SKU Number, Category, or Collections
            </span>
            <div
              class="input__wrapper"
            >
              <input
                class="c3"
                dir="ltr"
                placeholder="Search by SKU Number, Category, or Collections"
                value=""
              />
              <span
                class="icon right"
              >
                <svg
                  fill="none"
                  height="21"
                  viewBox="0 0 21 21"
                  width="21"
                  xmlns="http://www.w3.org/2000/svg"
                >
                  <path
                    d="M7.24512 0.0839844C6.58729 0.0839844 5.95321 0.168755 5.34285 0.338298C4.7325 0.50784 4.16284 0.748589 3.63387 1.06055C3.1049 1.3725 2.6234 1.7455 2.18937 2.17952C1.75534 2.61355 1.37896 3.09844 1.06022 3.6342C0.741482 4.16995 0.500732 4.73961 0.337971 5.34318C0.175211 5.94675 0.0904408 6.58084 0.0836582 7.24544C0.0836582 7.90327 0.168428 8.53735 0.337971 9.14771C0.507513 9.75806 0.748262 10.3277 1.06022 10.8567C1.37218 11.3857 1.74517 11.8672 2.1792 12.3012C2.61323 12.7352 3.09812 13.1116 3.63387 13.4303C4.16962 13.7491 4.73928 13.9898 5.34285 14.1526C5.94642 14.3153 6.58051 14.4001 7.24512 14.4069C8.09283 14.4069 8.90324 14.2645 9.67635 13.9797C10.4495 13.6948 11.1649 13.2845 11.8228 12.7488L19.8082 20.724C19.937 20.8529 20.0896 20.9173 20.266 20.9173C20.4423 20.9173 20.5949 20.8529 20.7237 20.724C20.8526 20.5952 20.917 20.4426 20.917 20.2663C20.917 20.09 20.8526 19.9374 20.7237 19.8085L12.7485 11.8231C13.2842 11.172 13.6945 10.46 13.9793 9.68685C14.2642 8.91374 14.4066 8.09994 14.4066 7.24544C14.4066 6.58762 14.3218 5.95353 14.1523 5.34318C13.9827 4.73283 13.742 4.16317 13.43 3.6342C13.1181 3.10522 12.7451 2.62373 12.311 2.1897C11.877 1.75567 11.3921 1.37929 10.8564 1.06055C10.3206 0.741808 9.75095 0.501058 9.14738 0.338298C8.54381 0.175537 7.90972 0.0907661 7.24512 0.0839844ZM7.24512 13.1048C6.4381 13.1048 5.67855 12.9522 4.96647 12.6471C4.25439 12.3419 3.63387 11.9214 3.1049 11.3857C2.57593 10.8499 2.15885 10.2294 1.85368 9.52409C1.5485 8.81879 1.39252 8.05925 1.38574 7.24544C1.38574 6.43842 1.53833 5.67887 1.84351 4.9668C2.14868 4.25472 2.56915 3.6342 3.1049 3.10522C3.64065 2.57625 4.26118 2.15918 4.96647 1.854C5.67177 1.54883 6.43131 1.39285 7.24512 1.38607C8.05214 1.38607 8.81169 1.53866 9.52376 1.84383C10.2358 2.14901 10.8564 2.56947 11.3853 3.10522C11.9143 3.64098 12.3314 4.2615 12.6366 4.9668C12.9417 5.67209 13.0977 6.43164 13.1045 7.24544C13.1045 8.05246 12.9519 8.81201 12.6467 9.52409C12.3416 10.2362 11.9211 10.8567 11.3853 11.3857C10.8496 11.9146 10.2291 12.3317 9.52376 12.6369C8.81847 12.9421 8.05892 13.098 7.24512 13.1048Z"
                    fill="#121213"
                  />
                </svg>
              </span>
            </div>
          </label>
        </div>
      </div>
    </div>
    <div
      class="c4"
    >
      <h1
        data-testid="testing-search"
      >
        Testing
      </h1>
    </div>
  </div>
</div>
`;

exports[`<ContextualSearch/> renders 1`] = `
.c1 {
  -webkit-flex: 1;
  -ms-flex: 1;
  flex: 1;
  box-sizing: border-box;
  font-family: Gilroy-Medium;
}

.c1 .error {
  margin-top: 4px;
  margin-left: 1px;
  font-size: 12px;
  font-family: 'Gilroy','Gilroy-Regular';
  -webkit-letter-spacing: 0px;
  -moz-letter-spacing: 0px;
  -ms-letter-spacing: 0px;
  letter-spacing: 0px;
  line-height: 14px;
  font-style: normal;
  css: font-size:12px;
  font-family: 'Gilroy','Gilroy-Regular';
  -webkit-letter-spacing: 0px;
  -moz-letter-spacing: 0px;
  -ms-letter-spacing: 0px;
  letter-spacing: 0px;
  line-height: 14px;
  font-style: normal;
  font-family: Gilroy-Medium;
  color: #D50000;
}

.c2 {
  display: -webkit-box;
  display: -webkit-flex;
  display: -ms-flexbox;
  display: flex;
  -webkit-box-pack: center;
  -webkit-justify-content: center;
  -ms-flex-pack: center;
  justify-content: center;
  -webkit-align-items: center;
  -webkit-box-align: center;
  -ms-flex-align: center;
  align-items: center;
  width: 100%;
  position: relative;
}

.c2 * {
  box-sizing: border-box;
}

.c2 .input__parent {
  width: 100%;
}

.c2.password input {
  padding-right: 50px !important;
}

.c2.password .show-pass svg path {
  fill: #121213;
}

.c2.floated-label:not(.disabled):hover .input__wrapper {
  border-bottom: 1px solid #121213;
}

.c2.floated-label .input__parent {
  padding-top: 10px;
}

.c2.floated-label .input__label {
  position: absolute;
  top: 26px;
  color: #64707D;
}

.c2.floated-label .input__wrapper {
  display: -webkit-box;
  display: -webkit-flex;
  display: -ms-flexbox;
  display: flex;
  -webkit-align-items: center;
  -webkit-box-align: center;
  -ms-flex-align: center;
  align-items: center;
  border-bottom: 1px solid #64707D;
}

.c2.floated-label .input__wrapper .icon {
  position: static;
  -webkit-transform: none;
  -ms-transform: none;
  transform: none;
  font-size: 13px;
  width: -webkit-max-content;
  width: -moz-max-content;
  width: max-content;
  color: #121213;
}

.c2.floated-label .input__wrapper .icon.left {
  padding-right: 5px;
}

.c2.floated-label .input__wrapper .icon.right {
  padding-left: 5px;
}

.c2.floated-label .input__wrapper input {
  padding: 16px 0px 16px;
  border: none;
}

.c2.floated-label .input__wrapper input::-webkit-input-placeholder {
  color: transparent;
}

.c2.floated-label .input__wrapper input::-moz-placeholder {
  color: transparent;
}

.c2.floated-label .input__wrapper input:-ms-input-placeholder {
  color: transparent;
}

.c2.floated-label .input__wrapper input::placeholder {
  color: transparent;
}

.c2.floated-label.container_focus .input__label,
.c2.floated-label.filled .input__label,
.c2.floated-label.has_prefix .input__label {
  top: 2px;
  color: #64707D;
}

.c2.floated-label.container_focus:not(.disabled) .input__wrapper {
  border-bottom: 1px solid #0D62FF;
}

.c2.floated-label.filled.disabled .input__parent span,
.c2.floated-label.filled.disabled .input__parent input {
  opacity: 1;
  font-family: 'Gilroy-Regular';
  color: #A0A0A1;
}

.c2.boxed .input__label {
  padding-bottom: 5px;
}

.c2.container_error:not(.disabled) .input__wrapper {
  border-color: #D50000;
}

.c2.disabled .input__label {
  color: #A0A0A1;
}

.c2 .input_parent {
  -webkit-flex-wrap: wrap;
  -ms-flex-wrap: wrap;
  flex-wrap: wrap;
  display: -webkit-box;
  display: -webkit-flex;
  display: -ms-flexbox;
  display: flex;
  width: 100%;
  height: 100%;
  position: relative;
  -webkit-flex: 0 1 auto;
  -ms-flex: 0 1 auto;
  flex: 0 1 auto;
  padding: 0 0.75rem;
  padding-top: 15px;
}

.c2 .input__label {
  width: 100%;
  font-size: 13px;
  font-weight: normal;
  display: -webkit-box;
  display: -webkit-flex;
  display: -ms-flexbox;
  display: flex;
  -webkit-flex-flow: row nowrap;
  -ms-flex-flow: row nowrap;
  flex-flow: row nowrap;
  z-index: 1;
  box-sizing: border-box;
  position: absolute;
  top: 0px;
  -webkit-transition: 0.2s;
  transition: 0.2s;
  -webkit-letter-spacing: 0.02em;
  -moz-letter-spacing: 0.02em;
  -ms-letter-spacing: 0.02em;
  letter-spacing: 0.02em;
  white-space: nowrap;
}

.c2 .input__label--hidden {
  position: absolute;
  text-indent: -9999px;
}

.c2 .input__label .label-text {
  float: left;
  overflow: hidden;
  text-overflow: ellipsis;
}

.c2 .input__label .locale-label {
  float: right;
  margin-left: auto;
}

.c2 .input__wrapper {
  position: relative;
}

.c2 .input__wrapper .icon {
  position: absolute;
  width: 20px;
  height: auto;
  top: 50%;
  -webkit-transform: translateY(-50%);
  -ms-transform: translateY(-50%);
  transform: translateY(-50%);
  left: 2px;
}

.c2 .input__wrapper .icon svg {
  vertical-align: middle;
}

.c2 .input__show {
  cursor: pointer;
  font-size: 0.675rem;
  -webkit-text-decoration: underline;
  text-decoration: underline;
  line-height: 1;
  font-weight: 300;
  position: absolute;
  top: 50%;
  -webkit-transform: translateY(-50%);
  -ms-transform: translateY(-50%);
  transform: translateY(-50%);
  right: 20px;
  width: auto;
}

.c2.icon-left input {
  padding-left: 35px;
}

.c2.sm.boxed.icon-left .icon .left {
  left: 10px;
}

.c2.sm.icon-left .icon {
  width: 14px;
  left: 10px;
}

.c2.sm input {
  padding-top: 11px;
  padding-bottom: 11px;
}

.c2.sm.icon-left input {
  padding-left: 40px;
}

.c2.md input {
  padding-top: 14px;
  padding-bottom: 12px;
}

.c3 {
  border: none;
  border-bottom: 1px #121213 solid;
  background-clip: padding-box;
  display: block;
  -webkit-box-sizing: border-box;
  box-sizing: border-box;
  width: 100%;
  padding-top: 16px;
  padding-bottom: 16px;
  word-break: normal;
  line-height: initial;
  -webkit-transition: all 0.2s ease-out;
  transition: all 0.2s ease-out;
  outline: none;
  -webkit-letter-spacing: 0.02em;
  -moz-letter-spacing: 0.02em;
  -ms-letter-spacing: 0.02em;
  letter-spacing: 0.02em;
  font-size: 13px;
  background-color: #FFFFFF !important;
}

.c3:disabled {
  pointer-events: none;
  opacity: 0.5;
  color: inherit;
}

.c3.custom {
  padding: 0px;
  margin: 0px;
}

.c3.custom:focus {
  border: none;
  padding: none;
}

.c3:-webkit-autofill {
  -webkit-animation-name: jYsTcq;
  animation-name: jYsTcq;
  -webkit-transition: background-color 50000s ease-in-out 0s;
  transition: background-color 50000s ease-in-out 0s;
}

.c4 {
  width: 346px;
  outline: none;
}

.c4 .dropdown-header-filled {
  padding: 8px 0 17px 0;
}

.c4 .dropdown-header-empty {
  padding: 0px;
}

.c4:hover .dropdown-header {
  box-shadow: inset 0 -1px 0 #121213;
}

.c4:focus .dropdown-header {
  box-shadow: inset 0 -1px 0 #0D62FF;
}

.c5 {
  display: inline-block;
  width: 346px;
  position: relative;
  font-family: 'Gilroy','Gilroy-Regular';
}

.c5 .label-row {
  display: -webkit-box;
  display: -webkit-flex;
  display: -ms-flexbox;
  display: flex;
  -webkit-align-items: center;
  -webkit-box-align: center;
  -ms-flex-align: center;
  align-items: center;
  -webkit-box-pack: justify;
  -webkit-justify-content: space-between;
  -ms-flex-pack: justify;
  justify-content: space-between;
  height: 15px;
}

.c5 .label-row-empty {
  height: 15px;
  display: -webkit-box;
  display: -webkit-flex;
  display: -ms-flexbox;
  display: flex;
  -webkit-align-items: center;
  -webkit-box-align: center;
  -ms-flex-align: center;
  align-items: center;
  -webkit-box-pack: justify;
  -webkit-justify-content: space-between;
  -ms-flex-pack: justify;
  justify-content: space-between;
  padding-top: 25px;
  padding-bottom: 16px;
}

.c6 .dd-lable {
  font-size: 13px;
  font-family: Gilroy-Medium;
  -webkit-letter-spacing: 0.26px;
  -moz-letter-spacing: 0.26px;
  -ms-letter-spacing: 0.26px;
  letter-spacing: 0.26px;
  line-height: 15px;
  font-style: normal;
  color: #64707D;
}

.c7 {
  text-align: center;
  -webkit-align-items: center;
  -webkit-box-align: center;
  -ms-flex-align: center;
  align-items: center;
  box-shadow: inset 0 -1px 0 #64707D;
  display: -webkit-box;
  display: -webkit-flex;
  display: -ms-flexbox;
  display: flex;
  -webkit-box-pack: center;
  -webkit-justify-content: center;
  -ms-flex-pack: center;
  justify-content: center;
  box-sizing: border-box;
}

.c7,
.c7 * {
  cursor: pointer !important;
}

.c7 .content-wrapper {
  -webkit-flex: 1;
  -ms-flex: 1;
  flex: 1;
  display: -webkit-box;
  display: -webkit-flex;
  display: -ms-flexbox;
  display: flex;
  -webkit-box-pack: left;
  -webkit-justify-content: left;
  -ms-flex-pack: left;
  justify-content: left;
  -webkit-align-items: baseline;
  -webkit-box-align: baseline;
  -ms-flex-align: baseline;
  align-items: baseline;
}

.c7 .content-wrapper .icon {
  right: 0;
  -webkit-transform-origin: 50% 50%;
  -ms-transform-origin: 50% 50%;
  transform-origin: 50% 50%;
  -webkit-transition: all 0.2s ease;
  transition: all 0.2s ease;
}

.c7 .content-wrapper .icon svg {
  fill: #64707D;
}

.c7 .content-wrapper label {
  display: inline-block;
  width: 100%;
  text-align: left;
  color: #121213;
}

.c7 .content-wrapper .option-label {
  font-family: Gilroy-Medium;
  font-size: 13px;
  line-height: 16px;
  -webkit-letter-spacing: 0.02em;
  -moz-letter-spacing: 0.02em;
  -ms-letter-spacing: 0.02em;
  letter-spacing: 0.02em;
}

.c0 {
  display: -webkit-box;
  display: -webkit-flex;
  display: -ms-flexbox;
  display: flex;
  box-shadow: 0px 5px 20px rgba(115,127,143,0.1);
  background-color: #ffffff;
  border-radius: 50px;
  box-sizing: border-box;
  padding: 5px 25px;
  width: 100%;
  -webkit-align-items: center;
  -webkit-box-align: center;
  -ms-flex-align: center;
  align-items: center;
  position: relative;
  height: 50px;
}

.c0 .ac-input-wrapper {
  width: 100%;
  position: relative;
}

.c0 .ac-input-wrapper .ac-icon-right {
  position: absolute;
  right: 0px;
  top: 50%;
  -webkit-transform: translateY(-50%);
  -ms-transform: translateY(-50%);
  transform: translateY(-50%);
}

.c0 input {
  border: none;
}

.c0 .column.left {
  -webkit-flex-basis: 100%;
  -ms-flex-preferred-size: 100%;
  flex-basis: 100%;
  position: relative;
}

.c0 .column.right {
  -webkit-flex-basis: 300px;
  -ms-flex-preferred-size: 300px;
  flex-basis: 300px;
}

.c0 .column.right .option-label {
  text-align: right;
  padding-right: 25px;
}

.c0 .column.right .ctx-search > div:nth-child(3) {
  right: -25px;
  top: 50px;
  border: 1px solid #E3E5E9;
  border-radius: 4px;
}

.c0 .column.right > div {
  width: auto;
  margin: auto;
}

.c0 .column.right > div > div:nth-of-type(2) {
  box-shadow: none;
  padding-bottom: 12px;
}

<div>
  <div
    class="c0"
  >
    <div
      class="column left"
    >
      <div
        class="c1 search-contextual"
      >
        <div
          class="c2 icon-left floated-label"
        >
          <label
            class="input__parent"
          >
            <span
              class="input__label--hidden"
            >
              Search by SKU Number, Category, or Collections
            </span>
            <div
              class="input__wrapper"
            >
              <input
                class="c3"
                dir="ltr"
                placeholder="Search by SKU Number, Category, or Collections"
                value=""
              />
              <span
                class="icon right"
              >
                <svg
                  fill="none"
                  height="21"
                  viewBox="0 0 21 21"
                  width="21"
                  xmlns="http://www.w3.org/2000/svg"
                >
                  <path
                    d="M7.24512 0.0839844C6.58729 0.0839844 5.95321 0.168755 5.34285 0.338298C4.7325 0.50784 4.16284 0.748589 3.63387 1.06055C3.1049 1.3725 2.6234 1.7455 2.18937 2.17952C1.75534 2.61355 1.37896 3.09844 1.06022 3.6342C0.741482 4.16995 0.500732 4.73961 0.337971 5.34318C0.175211 5.94675 0.0904408 6.58084 0.0836582 7.24544C0.0836582 7.90327 0.168428 8.53735 0.337971 9.14771C0.507513 9.75806 0.748262 10.3277 1.06022 10.8567C1.37218 11.3857 1.74517 11.8672 2.1792 12.3012C2.61323 12.7352 3.09812 13.1116 3.63387 13.4303C4.16962 13.7491 4.73928 13.9898 5.34285 14.1526C5.94642 14.3153 6.58051 14.4001 7.24512 14.4069C8.09283 14.4069 8.90324 14.2645 9.67635 13.9797C10.4495 13.6948 11.1649 13.2845 11.8228 12.7488L19.8082 20.724C19.937 20.8529 20.0896 20.9173 20.266 20.9173C20.4423 20.9173 20.5949 20.8529 20.7237 20.724C20.8526 20.5952 20.917 20.4426 20.917 20.2663C20.917 20.09 20.8526 19.9374 20.7237 19.8085L12.7485 11.8231C13.2842 11.172 13.6945 10.46 13.9793 9.68685C14.2642 8.91374 14.4066 8.09994 14.4066 7.24544C14.4066 6.58762 14.3218 5.95353 14.1523 5.34318C13.9827 4.73283 13.742 4.16317 13.43 3.6342C13.1181 3.10522 12.7451 2.62373 12.311 2.1897C11.877 1.75567 11.3921 1.37929 10.8564 1.06055C10.3206 0.741808 9.75095 0.501058 9.14738 0.338298C8.54381 0.175537 7.90972 0.0907661 7.24512 0.0839844ZM7.24512 13.1048C6.4381 13.1048 5.67855 12.9522 4.96647 12.6471C4.25439 12.3419 3.63387 11.9214 3.1049 11.3857C2.57593 10.8499 2.15885 10.2294 1.85368 9.52409C1.5485 8.81879 1.39252 8.05925 1.38574 7.24544C1.38574 6.43842 1.53833 5.67887 1.84351 4.9668C2.14868 4.25472 2.56915 3.6342 3.1049 3.10522C3.64065 2.57625 4.26118 2.15918 4.96647 1.854C5.67177 1.54883 6.43131 1.39285 7.24512 1.38607C8.05214 1.38607 8.81169 1.53866 9.52376 1.84383C10.2358 2.14901 10.8564 2.56947 11.3853 3.10522C11.9143 3.64098 12.3314 4.2615 12.6366 4.9668C12.9417 5.67209 13.0977 6.43164 13.1045 7.24544C13.1045 8.05246 12.9519 8.81201 12.6467 9.52409C12.3416 10.2362 11.9211 10.8567 11.3853 11.3857C10.8496 11.9146 10.2291 12.3317 9.52376 12.6369C8.81847 12.9421 8.05892 13.098 7.24512 13.1048Z"
                    fill="#121213"
                  />
                </svg>
              </span>
            </div>
          </label>
        </div>
      </div>
    </div>
    <div
      class="column right"
    >
      <div
        class="c4"
        tabindex="0"
      >
        <div
          class="c5 ctx-search"
        >
          <div
            class="label-row"
          >
            <div
              class="c6"
            >
              <label
                class="dd-lable"
              />
            </div>
          </div>
          <div
            class="c7 dropdown-header dropdown-header-filled"
            type="large"
          >
             
            <div
              class="content-wrapper"
            >
              <label
                class="option-label"
              >
                All Item Types
              </label>
              <div
                class="icon"
              >
                <svg
                  data-testid="dropdown-trigger-icon"
                  fill="#121213"
                  height="16"
                  viewBox="0 0 16 16"
                  width="16"
                  xmlns="http://www.w3.org/2000/svg"
                >
                  <path
                    d="M3.08953 4.96967C2.79664 4.67678 2.32177 4.67678 2.02887 4.96967C1.73598 5.26256 1.73598 5.73744 2.02887 6.03033L3.08953 4.96967ZM7.52884 11.5303C7.82173 11.8232 8.2966 11.8232 8.5895 11.5303C8.88239 11.2374 8.88239 10.7625 8.5895 10.4696L7.52884 11.5303ZM2.02887 6.03033L7.52884 11.5303L8.5895 10.4696L3.08953 4.96967L2.02887 6.03033Z"
                  />
                  <path
                    d="M14.0303 6.08905C14.3232 5.79616 14.3232 5.32129 14.0303 5.02839C13.7374 4.73549 13.2626 4.73549 12.9697 5.02838L14.0303 6.08905ZM7.52804 10.4699C7.23514 10.7628 7.23514 11.2377 7.52803 11.5306C7.82092 11.8235 8.29579 11.8235 8.58869 11.5306L7.52804 10.4699ZM12.9697 5.02838L7.52804 10.4699L8.58869 11.5306L14.0303 6.08905L12.9697 5.02838Z"
                  />
                </svg>
              </div>
            </div>
          </div>
        </div>
      </div>
    </div>
  </div>
</div>
`;
