// Jest Snapshot v1, https://goo.gl/fbAQLP

exports[`<SearchLoader/> should render Search loader correctly 1`] = `
.c2 {
  box-sizing: border-box;
  width: 87%;
  height: 40px;
  border-radius: 60px;
  background-repeat: no-repeat;
  background-size: 800px 104px;
  -webkit-animation: gyrvJD 1s linear infinite forwards;
  animation: gyrvJD 1s linear infinite forwards;
}

.c3 {
  box-sizing: border-box;
  width: 36px;
  height: 36px;
  border-radius: 60px;
  background-repeat: no-repeat;
  background-size: 800px 104px;
  -webkit-animation: gyrvJD 1s linear infinite forwards;
  animation: gyrvJD 1s linear infinite forwards;
}

.c0 {
  display: -webkit-box;
  display: -webkit-flex;
  display: -ms-flexbox;
  display: flex;
  -webkit-flex-direction: column;
  -ms-flex-direction: column;
  flex-direction: column;
}

.c1 {
  display: -webkit-box;
  display: -webkit-flex;
  display: -ms-flexbox;
  display: flex;
  -webkit-align-items: center;
  -webkit-box-align: center;
  -ms-flex-align: center;
  align-items: center;
}

.c1 div:first-child {
  margin-right: 29px;
}

.c1 div:last-child {
  margin-left: 12px;
}

<div>
  <div
    class="c0"
  >
    <div
      class="c1"
    >
      <div
        class="c2"
        height="40px"
        width="87%"
      />
      <div
        class="c3"
        height="36px"
        width="36px"
      />
      <div
        class="c3"
        height="36px"
        width="36px"
      />
    </div>
  </div>
</div>
`;

exports[`<SearchLoader/> should render Search loader with theme:dark 1`] = `
.c2 {
  box-sizing: border-box;
  width: 87%;
  height: 40px;
  border-radius: 60px;
  background: #E3E5E9;
  background-image: linear-gradient( to right,#E3E5E9 0%,#dfdee0 20%,#E3E5E9 30%,#E3E5E9 100% );
  background-repeat: no-repeat;
  background-size: 800px 104px;
  -webkit-animation: gyrvJD 1s linear infinite forwards;
  animation: gyrvJD 1s linear infinite forwards;
}

.c3 {
  box-sizing: border-box;
  width: 36px;
  height: 36px;
  border-radius: 60px;
  background: #E3E5E9;
  background-image: linear-gradient( to right,#E3E5E9 0%,#dfdee0 20%,#E3E5E9 30%,#E3E5E9 100% );
  background-repeat: no-repeat;
  background-size: 800px 104px;
  -webkit-animation: gyrvJD 1s linear infinite forwards;
  animation: gyrvJD 1s linear infinite forwards;
}

.c0 {
  display: -webkit-box;
  display: -webkit-flex;
  display: -ms-flexbox;
  display: flex;
  -webkit-flex-direction: column;
  -ms-flex-direction: column;
  flex-direction: column;
}

.c1 {
  display: -webkit-box;
  display: -webkit-flex;
  display: -ms-flexbox;
  display: flex;
  -webkit-align-items: center;
  -webkit-box-align: center;
  -ms-flex-align: center;
  align-items: center;
}

.c1 div:first-child {
  margin-right: 29px;
}

.c1 div:last-child {
  margin-left: 12px;
}

<div>
  <div
    class="c0"
  >
    <div
      class="c1"
    >
      <div
        class="c2"
        height="40px"
        width="87%"
      />
      <div
        class="c3"
        height="36px"
        width="36px"
      />
      <div
        class="c3"
        height="36px"
        width="36px"
      />
    </div>
  </div>
</div>
`;

exports[`<SearchLoader/> should render Search loader with theme:light 1`] = `
.c2 {
  box-sizing: border-box;
  width: 87%;
  height: 40px;
  border-radius: 60px;
  background: #F1F2F4;
  background-image: linear-gradient( to right,#F1F2F4 0%,#e8eaed 20%,#F1F2F4 30%,#F1F2F4 100% );
  background-repeat: no-repeat;
  background-size: 800px 104px;
  -webkit-animation: gyrvJD 1s linear infinite forwards;
  animation: gyrvJD 1s linear infinite forwards;
}

.c3 {
  box-sizing: border-box;
  width: 36px;
  height: 36px;
  border-radius: 60px;
  background: #F1F2F4;
  background-image: linear-gradient( to right,#F1F2F4 0%,#e8eaed 20%,#F1F2F4 30%,#F1F2F4 100% );
  background-repeat: no-repeat;
  background-size: 800px 104px;
  -webkit-animation: gyrvJD 1s linear infinite forwards;
  animation: gyrvJD 1s linear infinite forwards;
}

.c0 {
  display: -webkit-box;
  display: -webkit-flex;
  display: -ms-flexbox;
  display: flex;
  -webkit-flex-direction: column;
  -ms-flex-direction: column;
  flex-direction: column;
}

.c1 {
  display: -webkit-box;
  display: -webkit-flex;
  display: -ms-flexbox;
  display: flex;
  -webkit-align-items: center;
  -webkit-box-align: center;
  -ms-flex-align: center;
  align-items: center;
}

.c1 div:first-child {
  margin-right: 29px;
}

.c1 div:last-child {
  margin-left: 12px;
}

<div>
  <div
    class="c0"
  >
    <div
      class="c1"
    >
      <div
        class="c2"
        height="40px"
        width="87%"
      />
      <div
        class="c3"
        height="36px"
        width="36px"
      />
      <div
        class="c3"
        height="36px"
        width="36px"
      />
    </div>
  </div>
</div>
`;
