// Jest Snapshot v1, https://goo.gl/fbAQLP

exports[`<CardLoader/> should render card loader with default prop values 1`] = `
.c0 {
  display: -webkit-box;
  display: -webkit-flex;
  display: -ms-flexbox;
  display: flex;
  -webkit-flex-direction: column;
  -ms-flex-direction: column;
  flex-direction: column;
}

.c2 {
  display: -webkit-box;
  display: -webkit-flex;
  display: -ms-flexbox;
  display: flex;
  -webkit-flex-direction: row;
  -ms-flex-direction: row;
  flex-direction: row;
  -webkit-align-items: center;
  -webkit-box-align: center;
  -ms-flex-align: center;
  align-items: center;
  margin-top: 32px;
  box-sizing: border-box;
}

.c2:nth-child(2) {
  margin-top: 24px;
}

.c2 > div:first-child {
  margin-right: 24px;
}

.c1 {
  box-sizing: border-box;
  width: 43%;
  height: 16px;
  border-radius: 60px;
  background-repeat: no-repeat;
  background-size: 800px 104px;
  -webkit-animation: gyrvJD 1s linear infinite forwards;
  animation: gyrvJD 1s linear infinite forwards;
}

.c3 {
  box-sizing: border-box;
  width: 70%;
  height: 16px;
  border-radius: 60px;
  background-repeat: no-repeat;
  background-size: 800px 104px;
  -webkit-animation: gyrvJD 1s linear infinite forwards;
  animation: gyrvJD 1s linear infinite forwards;
}

.c4 {
  box-sizing: border-box;
  width: 30%;
  height: 30px;
  border-radius: 60px;
  background-repeat: no-repeat;
  background-size: 800px 104px;
  -webkit-animation: gyrvJD 1s linear infinite forwards;
  animation: gyrvJD 1s linear infinite forwards;
}

<div>
  <div
    class="c0"
  >
    <div
      class="c1"
      height="16px"
      width="43%"
    />
    <div
      class="c2"
    >
      <div
        class="c3"
        height="16px"
        width="70%"
      />
      <div
        class="c4"
        height="30px"
        width="30%"
      />
    </div>
    <div
      class="c2"
    >
      <div
        class="c3"
        height="16px"
        width="70%"
      />
      <div
        class="c4"
        height="30px"
        width="30%"
      />
    </div>
    <div
      class="c2"
    >
      <div
        class="c3"
        height="16px"
        width="70%"
      />
      <div
        class="c4"
        height="30px"
        width="30%"
      />
    </div>
    <div
      class="c2"
    >
      <div
        class="c3"
        height="16px"
        width="70%"
      />
      <div
        class="c4"
        height="30px"
        width="30%"
      />
    </div>
  </div>
</div>
`;

exports[`<CardLoader/> should render card loader with rowCount:5 theme:dark 1`] = `
.c0 {
  display: -webkit-box;
  display: -webkit-flex;
  display: -ms-flexbox;
  display: flex;
  -webkit-flex-direction: column;
  -ms-flex-direction: column;
  flex-direction: column;
}

.c2 {
  display: -webkit-box;
  display: -webkit-flex;
  display: -ms-flexbox;
  display: flex;
  -webkit-flex-direction: row;
  -ms-flex-direction: row;
  flex-direction: row;
  -webkit-align-items: center;
  -webkit-box-align: center;
  -ms-flex-align: center;
  align-items: center;
  margin-top: 32px;
  box-sizing: border-box;
}

.c2:nth-child(2) {
  margin-top: 24px;
}

.c2 > div:first-child {
  margin-right: 24px;
}

.c1 {
  box-sizing: border-box;
  width: 43%;
  height: 16px;
  border-radius: 60px;
  background: #E3E5E9;
  background-image: linear-gradient( to right,#E3E5E9 0%,#dfdee0 20%,#E3E5E9 30%,#E3E5E9 100% );
  background-repeat: no-repeat;
  background-size: 800px 104px;
  -webkit-animation: gyrvJD 1s linear infinite forwards;
  animation: gyrvJD 1s linear infinite forwards;
}

.c3 {
  box-sizing: border-box;
  width: 70%;
  height: 16px;
  border-radius: 60px;
  background: #E3E5E9;
  background-image: linear-gradient( to right,#E3E5E9 0%,#dfdee0 20%,#E3E5E9 30%,#E3E5E9 100% );
  background-repeat: no-repeat;
  background-size: 800px 104px;
  -webkit-animation: gyrvJD 1s linear infinite forwards;
  animation: gyrvJD 1s linear infinite forwards;
}

.c4 {
  box-sizing: border-box;
  width: 30%;
  height: 30px;
  border-radius: 60px;
  background: #E3E5E9;
  background-image: linear-gradient( to right,#E3E5E9 0%,#dfdee0 20%,#E3E5E9 30%,#E3E5E9 100% );
  background-repeat: no-repeat;
  background-size: 800px 104px;
  -webkit-animation: gyrvJD 1s linear infinite forwards;
  animation: gyrvJD 1s linear infinite forwards;
}

<div>
  <div
    class="c0"
  >
    <div
      class="c1"
      height="16px"
      width="43%"
    />
    <div
      class="c2"
    >
      <div
        class="c3"
        height="16px"
        width="70%"
      />
      <div
        class="c4"
        height="30px"
        width="30%"
      />
    </div>
    <div
      class="c2"
    >
      <div
        class="c3"
        height="16px"
        width="70%"
      />
      <div
        class="c4"
        height="30px"
        width="30%"
      />
    </div>
    <div
      class="c2"
    >
      <div
        class="c3"
        height="16px"
        width="70%"
      />
      <div
        class="c4"
        height="30px"
        width="30%"
      />
    </div>
    <div
      class="c2"
    >
      <div
        class="c3"
        height="16px"
        width="70%"
      />
      <div
        class="c4"
        height="30px"
        width="30%"
      />
    </div>
    <div
      class="c2"
    >
      <div
        class="c3"
        height="16px"
        width="70%"
      />
      <div
        class="c4"
        height="30px"
        width="30%"
      />
    </div>
  </div>
</div>
`;

exports[`<CardLoader/> should render card loader with rowCount:5 theme:light 1`] = `
.c0 {
  display: -webkit-box;
  display: -webkit-flex;
  display: -ms-flexbox;
  display: flex;
  -webkit-flex-direction: column;
  -ms-flex-direction: column;
  flex-direction: column;
}

.c2 {
  display: -webkit-box;
  display: -webkit-flex;
  display: -ms-flexbox;
  display: flex;
  -webkit-flex-direction: row;
  -ms-flex-direction: row;
  flex-direction: row;
  -webkit-align-items: center;
  -webkit-box-align: center;
  -ms-flex-align: center;
  align-items: center;
  margin-top: 32px;
  box-sizing: border-box;
}

.c2:nth-child(2) {
  margin-top: 24px;
}

.c2 > div:first-child {
  margin-right: 24px;
}

.c1 {
  box-sizing: border-box;
  width: 43%;
  height: 16px;
  border-radius: 60px;
  background: #F1F2F4;
  background-image: linear-gradient( to right,#F1F2F4 0%,#e8eaed 20%,#F1F2F4 30%,#F1F2F4 100% );
  background-repeat: no-repeat;
  background-size: 800px 104px;
  -webkit-animation: gyrvJD 1s linear infinite forwards;
  animation: gyrvJD 1s linear infinite forwards;
}

.c3 {
  box-sizing: border-box;
  width: 70%;
  height: 16px;
  border-radius: 60px;
  background: #F1F2F4;
  background-image: linear-gradient( to right,#F1F2F4 0%,#e8eaed 20%,#F1F2F4 30%,#F1F2F4 100% );
  background-repeat: no-repeat;
  background-size: 800px 104px;
  -webkit-animation: gyrvJD 1s linear infinite forwards;
  animation: gyrvJD 1s linear infinite forwards;
}

.c4 {
  box-sizing: border-box;
  width: 30%;
  height: 30px;
  border-radius: 60px;
  background: #F1F2F4;
  background-image: linear-gradient( to right,#F1F2F4 0%,#e8eaed 20%,#F1F2F4 30%,#F1F2F4 100% );
  background-repeat: no-repeat;
  background-size: 800px 104px;
  -webkit-animation: gyrvJD 1s linear infinite forwards;
  animation: gyrvJD 1s linear infinite forwards;
}

<div>
  <div
    class="c0"
  >
    <div
      class="c1"
      height="16px"
      width="43%"
    />
    <div
      class="c2"
    >
      <div
        class="c3"
        height="16px"
        width="70%"
      />
      <div
        class="c4"
        height="30px"
        width="30%"
      />
    </div>
    <div
      class="c2"
    >
      <div
        class="c3"
        height="16px"
        width="70%"
      />
      <div
        class="c4"
        height="30px"
        width="30%"
      />
    </div>
    <div
      class="c2"
    >
      <div
        class="c3"
        height="16px"
        width="70%"
      />
      <div
        class="c4"
        height="30px"
        width="30%"
      />
    </div>
    <div
      class="c2"
    >
      <div
        class="c3"
        height="16px"
        width="70%"
      />
      <div
        class="c4"
        height="30px"
        width="30%"
      />
    </div>
    <div
      class="c2"
    >
      <div
        class="c3"
        height="16px"
        width="70%"
      />
      <div
        class="c4"
        height="30px"
        width="30%"
      />
    </div>
  </div>
</div>
`;
