// Jest Snapshot v1, https://goo.gl/fbAQLP

exports[`<WorkflowProgressBar /> can dynamically replace Cell component 1`] = `
.c0 {
  position: relative;
  table-layout: auto;
  width: 100%;
  background: #FFFFFF;
  text-align: left;
  box-sizing: border-box;
  border-collapse: collapse;
  border-radius: 4px 4px 0 0;
}

.c0 .child-row {
  border-left: 1px solid #0D62FF;
  border-right: 1px solid #0D62FF;
}

.c0 .child-cell:first-child {
  padding-right: 14px;
}

.c0 .has-child {
  padding: 0;
}

.c0 .expansion-cell {
  position: relative;
  width: 60px !important;
}

.c0 .expansion-cell svg {
  position: absolute;
  left: 50%;
  top: 50%;
  -webkit-transform-origin: 50% 50%;
  -ms-transform-origin: 50% 50%;
  transform-origin: 50% 50%;
  -webkit-transform: translate(-50%,-50%);
  -ms-transform: translate(-50%,-50%);
  transform: translate(-50%,-50%);
  -webkit-transition: all 0.2s ease;
  transition: all 0.2s ease;
}

.c0 .rotate-caret {
  -webkit-transform: rotate(180deg);
  -ms-transform: rotate(180deg);
  transform: rotate(180deg);
}

.c0 .rotate-caret svg path {
  fill: #0D62FF;
}

.c0 .hide {
  width: 0;
  opacity: 0;
}

.c1 {
  border-radius: 4px 4px 0px 0px;
}

.c3 {
  position: relative;
  box-sizing: border-box;
  padding: 32px 0px;
  font-size: 13px;
  line-height: 16px;
  -webkit-letter-spacing: 0.02em;
  -moz-letter-spacing: 0.02em;
  -ms-letter-spacing: 0.02em;
  letter-spacing: 0.02em;
  color: #64707D;
  cursor: default;
  -webkit-user-select: none;
  -moz-user-select: none;
  -ms-user-select: none;
  user-select: none;
  word-wrap: break-word;
}

.c3 span {
  cursor: pointer;
}

.c3:last-child {
  padding-right: 24px;
}

.c3:first-child {
  padding-left: 30px;
}

.c2 {
  box-shadow: inset 0px -1px 0px rgba(115,127,143,0.2);
}

.c2:not(.table-main-row):hover {
  background: #F1F2F4;
  box-shadow: inset 0px -1px 0px #E3E5E9;
}

.c4 {
  box-sizing: border-box;
  position: relative;
  font-size: 13px;
  line-height: 15px;
  -webkit-letter-spacing: 0.26px;
  -moz-letter-spacing: 0.26px;
  -ms-letter-spacing: 0.26px;
  letter-spacing: 0.26px;
  color: #121213;
  padding: 25px 24px 25px 0px;
  word-wrap: break-word;
  -webkit-transition: all 0.2s ease;
  transition: all 0.2s ease;
}

.c4:first-child {
  text-align: left;
  padding-left: 30px;
}

.c7 {
  position: relative;
  width: 2rem;
  height: 2rem;
  background-color: #008A1E;
  color: black;
  border: 1px grey solid;
}

.c9 {
  position: relative;
  width: 2rem;
  height: 2rem;
  background-color: white;
  color: black;
  border: 1px grey solid;
}

.c11 {
  position: relative;
  width: 2rem;
  height: 2rem;
  background-color: #D50000;
  color: #FFFFFF;
  border: 1px grey solid;
}

.c12 {
  position: relative;
  width: 2rem;
  height: 2rem;
  background-color: #FD9F1C;
  color: #FFFFFF;
  border: 1px grey solid;
}

.c8 {
  display: -webkit-box;
  display: -webkit-flex;
  display: -ms-flexbox;
  display: flex;
  -webkit-box-pack: center;
  -webkit-justify-content: center;
  -ms-flex-pack: center;
  justify-content: center;
  -webkit-align-items: center;
  -webkit-box-align: center;
  -ms-flex-align: center;
  align-items: center;
  border: 1px grey solid;
  border-radius: 50%;
}

.c5 {
  position: 'relative';
}

.c6 {
  position: absolute;
  top: 50%;
  width: 100%;
  height: 2px;
  border-top: 1px grey solid;
}

.c10 {
  position: absolute;
  top: 50%;
  left: -25%;
  width: 50%;
  height: 2px;
  border-top: 1px grey solid;
}

<div>
  
  <table
    class="c0"
  >
    <thead
      class="c1"
    >
      <tr
        class="c2 table-main-row"
      >
        <th
          class="c3"
        >
          <span>
            <span>
              SKU ID
            </span>
          </span>
        </th>
        <th
          class="c3"
        >
          <span>
            <span>
              Created
            </span>
          </span>
        </th>
        <th
          class="c3"
        >
          <span>
            <span>
              Allocated
            </span>
          </span>
        </th>
        <th
          class="c3"
        >
          <span>
            <span>
              Shipped
            </span>
          </span>
        </th>
        <th
          class="c3"
        >
          <span>
            <span>
              Delivered
            </span>
          </span>
        </th>
        <th
          class="c3"
        >
          <span>
            <span>
              Returned
            </span>
          </span>
        </th>
        <th
          class="c3"
        >
          <span>
            <span>
              Cancelled
            </span>
          </span>
        </th>
        <th
          class="c3"
        >
          <span>
            <span>
              Hold
            </span>
          </span>
        </th>
      </tr>
    </thead>
    <tbody>
      <tr
        class="c2"
        data-testid="row-0"
      >
        <td
          class="c4"
        >
          <div>
            <div>
              01283881
            </div>
            <div>
              Cotton Shirt
               (
              3
              )
            </div>
          </div>
        </td>
        <td
          class="c4"
        >
          <div
            class="c5"
          >
            <div
              class="c6"
              data-testid="line-across"
            />
            <div
              class="c7 c8"
            >
              <svg
                fill="white"
                height="16"
                viewBox="0 0 16 16"
                width="16"
                xmlns="http://www.w3.org/2000/svg"
              >
                <path
                  d="M6.26678 13.1996C6.03715 13.1996 5.81613 13.1086 5.65401 12.9457L1.32055 8.61227C0.981693 8.27342 0.981693 7.72564 1.32055 7.38682C1.6594 7.04796 2.20717 7.04796 2.546 7.38682L6.2339 11.0747L13.423 3.08653C13.7436 2.73203 14.2914 2.70175 14.6468 3.0224C15.0022 3.34219 15.0307 3.88996 14.7109 4.24622L6.91071 12.9131C6.75207 13.09 6.52679 13.1931 6.28931 13.2H6.26678L6.26678 13.1996Z"
                  fill="white"
                />
              </svg>
            </div>
          </div>
        </td>
        <td
          class="c4"
        >
          <div
            class="c5"
          >
            <div
              class="c6"
              data-testid="line-across"
            />
            <div
              class="c9 c8"
            >
              2
            </div>
          </div>
        </td>
        <td
          class="c4"
        >
          <div
            class="c5"
          >
            <div
              class="c6"
              data-testid="line-across"
            />
            <div
              class="c9 c8"
            >
              2
            </div>
          </div>
        </td>
        <td
          class="c4"
        >
          <div
            class="c5"
          >
            <div
              class="c10"
              data-testid="line-left"
            />
            <div
              class="c9 c8"
            >
              1
            </div>
          </div>
        </td>
        <td
          class="c4"
        >
          <div
            class="c5"
          >
            <div
              class="c9 c8"
            />
          </div>
        </td>
        <td
          class="c4"
        >
          <div
            class="c5"
          >
            <div
              class="c9 c8"
            />
          </div>
        </td>
        <td
          class="c4"
        >
          <div
            class="c5"
          >
            <div
              class="c11 c8"
            >
              1
            </div>
          </div>
        </td>
      </tr>
      <tr
        class="c2"
        data-testid="row-1"
      >
        <td
          class="c4"
        >
          <div>
            <div>
              01283881
            </div>
            <div>
              Boyfriend jeans
               (
              2
              )
            </div>
          </div>
        </td>
        <td
          class="c4"
        >
          <div
            class="c5"
          >
            <div
              class="c6"
              data-testid="line-across"
            />
            <div
              class="c9 c8"
            />
          </div>
        </td>
        <td
          class="c4"
        >
          <div
            class="c5"
          >
            <div
              class="c6"
              data-testid="line-across"
            />
            <div
              class="c9 c8"
            >
              1
            </div>
          </div>
        </td>
        <td
          class="c4"
        >
          <div
            class="c5"
          >
            <div
              class="c6"
              data-testid="line-across"
            />
            <div
              class="c9 c8"
            />
          </div>
        </td>
        <td
          class="c4"
        >
          <div
            class="c5"
          >
            <div
              class="c10"
              data-testid="line-left"
            />
            <div
              class="c9 c8"
            />
          </div>
        </td>
        <td
          class="c4"
        >
          <div
            class="c5"
          >
            <div
              class="c12 c8"
            >
              1
            </div>
          </div>
        </td>
        <td
          class="c4"
        >
          <div
            class="c5"
          >
            <div
              class="c9 c8"
            />
          </div>
        </td>
        <td
          class="c4"
        >
          <div
            class="c5"
          >
            <div
              class="c9 c8"
            />
          </div>
        </td>
      </tr>
    </tbody>
    <tfoot />
  </table>
</div>
`;

exports[`<WorkflowProgressBar /> can dynamically replace Cell component 2`] = `
.c0 {
  position: relative;
  table-layout: auto;
  width: 100%;
  background: #FFFFFF;
  text-align: left;
  box-sizing: border-box;
  border-collapse: collapse;
  border-radius: 4px 4px 0 0;
}

.c0 .child-row {
  border-left: 1px solid #0D62FF;
  border-right: 1px solid #0D62FF;
}

.c0 .child-cell:first-child {
  padding-right: 14px;
}

.c0 .has-child {
  padding: 0;
}

.c0 .expansion-cell {
  position: relative;
  width: 60px !important;
}

.c0 .expansion-cell svg {
  position: absolute;
  left: 50%;
  top: 50%;
  -webkit-transform-origin: 50% 50%;
  -ms-transform-origin: 50% 50%;
  transform-origin: 50% 50%;
  -webkit-transform: translate(-50%,-50%);
  -ms-transform: translate(-50%,-50%);
  transform: translate(-50%,-50%);
  -webkit-transition: all 0.2s ease;
  transition: all 0.2s ease;
}

.c0 .rotate-caret {
  -webkit-transform: rotate(180deg);
  -ms-transform: rotate(180deg);
  transform: rotate(180deg);
}

.c0 .rotate-caret svg path {
  fill: #0D62FF;
}

.c0 .hide {
  width: 0;
  opacity: 0;
}

.c1 {
  border-radius: 4px 4px 0px 0px;
}

.c3 {
  position: relative;
  box-sizing: border-box;
  padding: 32px 0px;
  font-size: 13px;
  line-height: 16px;
  -webkit-letter-spacing: 0.02em;
  -moz-letter-spacing: 0.02em;
  -ms-letter-spacing: 0.02em;
  letter-spacing: 0.02em;
  color: #64707D;
  cursor: default;
  -webkit-user-select: none;
  -moz-user-select: none;
  -ms-user-select: none;
  user-select: none;
  word-wrap: break-word;
}

.c3 span {
  cursor: pointer;
}

.c3:last-child {
  padding-right: 24px;
}

.c3:first-child {
  padding-left: 30px;
}

.c2 {
  box-shadow: inset 0px -1px 0px rgba(115,127,143,0.2);
}

.c2:not(.table-main-row):hover {
  background: #F1F2F4;
  box-shadow: inset 0px -1px 0px #E3E5E9;
}

.c4 {
  box-sizing: border-box;
  position: relative;
  font-size: 13px;
  line-height: 15px;
  -webkit-letter-spacing: 0.26px;
  -moz-letter-spacing: 0.26px;
  -ms-letter-spacing: 0.26px;
  letter-spacing: 0.26px;
  color: #121213;
  padding: 25px 24px 25px 0px;
  word-wrap: break-word;
  -webkit-transition: all 0.2s ease;
  transition: all 0.2s ease;
}

.c4:first-child {
  text-align: left;
  padding-left: 30px;
}

.c5 {
  position: 'relative';
}

.c6 {
  position: absolute;
  top: 50%;
  width: 100%;
  height: 2px;
  border-top: 1px grey solid;
}

.c7 {
  position: absolute;
  top: 50%;
  left: -25%;
  width: 50%;
  height: 2px;
  border-top: 1px grey solid;
}

<div>
  
  <table
    class="c0"
  >
    <thead
      class="c1"
    >
      <tr
        class="c2 table-main-row"
      >
        <th
          class="c3"
        >
          <span>
            <span>
              SKU ID
            </span>
          </span>
        </th>
        <th
          class="c3"
        >
          <span>
            <span>
              Created
            </span>
          </span>
        </th>
        <th
          class="c3"
        >
          <span>
            <span>
              Allocated
            </span>
          </span>
        </th>
        <th
          class="c3"
        >
          <span>
            <span>
              Shipped
            </span>
          </span>
        </th>
        <th
          class="c3"
        >
          <span>
            <span>
              Delivered
            </span>
          </span>
        </th>
        <th
          class="c3"
        >
          <span>
            <span>
              Returned
            </span>
          </span>
        </th>
        <th
          class="c3"
        >
          <span>
            <span>
              Cancelled
            </span>
          </span>
        </th>
        <th
          class="c3"
        >
          <span>
            <span>
              Hold
            </span>
          </span>
        </th>
      </tr>
    </thead>
    <tbody>
      <tr
        class="c2"
        data-testid="row-0"
      >
        <td
          class="c4"
        >
          <div>
            <div>
              01283881
            </div>
            <div>
              Cotton Shirt
               (
              3
              )
            </div>
          </div>
        </td>
        <td
          class="c4"
        >
          <div
            class="c5"
          >
            <div
              class="c6"
              data-testid="line-across"
            />
            other cell
          </div>
        </td>
        <td
          class="c4"
        >
          <div
            class="c5"
          >
            <div
              class="c6"
              data-testid="line-across"
            />
            other cell
          </div>
        </td>
        <td
          class="c4"
        >
          <div
            class="c5"
          >
            <div
              class="c6"
              data-testid="line-across"
            />
            other cell
          </div>
        </td>
        <td
          class="c4"
        >
          <div
            class="c5"
          >
            <div
              class="c7"
              data-testid="line-left"
            />
            other cell
          </div>
        </td>
        <td
          class="c4"
        >
          <div
            class="c5"
          >
            other cell
          </div>
        </td>
        <td
          class="c4"
        >
          <div
            class="c5"
          >
            other cell
          </div>
        </td>
        <td
          class="c4"
        >
          <div
            class="c5"
          >
            other cell
          </div>
        </td>
      </tr>
      <tr
        class="c2"
        data-testid="row-1"
      >
        <td
          class="c4"
        >
          <div>
            <div>
              01283881
            </div>
            <div>
              Boyfriend jeans
               (
              2
              )
            </div>
          </div>
        </td>
        <td
          class="c4"
        >
          <div
            class="c5"
          >
            <div
              class="c6"
              data-testid="line-across"
            />
            other cell
          </div>
        </td>
        <td
          class="c4"
        >
          <div
            class="c5"
          >
            <div
              class="c6"
              data-testid="line-across"
            />
            other cell
          </div>
        </td>
        <td
          class="c4"
        >
          <div
            class="c5"
          >
            <div
              class="c6"
              data-testid="line-across"
            />
            other cell
          </div>
        </td>
        <td
          class="c4"
        >
          <div
            class="c5"
          >
            <div
              class="c7"
              data-testid="line-left"
            />
            other cell
          </div>
        </td>
        <td
          class="c4"
        >
          <div
            class="c5"
          >
            other cell
          </div>
        </td>
        <td
          class="c4"
        >
          <div
            class="c5"
          >
            other cell
          </div>
        </td>
        <td
          class="c4"
        >
          <div
            class="c5"
          >
            other cell
          </div>
        </td>
      </tr>
    </tbody>
    <tfoot />
  </table>
</div>
`;

exports[`<WorkflowProgressBar /> should render storybook example 1`] = `
.c0 {
  position: relative;
  table-layout: auto;
  width: 100%;
  background: #FFFFFF;
  text-align: left;
  box-sizing: border-box;
  border-collapse: collapse;
  border-radius: 4px 4px 0 0;
}

.c0 .child-row {
  border-left: 1px solid #0D62FF;
  border-right: 1px solid #0D62FF;
}

.c0 .child-cell:first-child {
  padding-right: 14px;
}

.c0 .has-child {
  padding: 0;
}

.c0 .expansion-cell {
  position: relative;
  width: 60px !important;
}

.c0 .expansion-cell svg {
  position: absolute;
  left: 50%;
  top: 50%;
  -webkit-transform-origin: 50% 50%;
  -ms-transform-origin: 50% 50%;
  transform-origin: 50% 50%;
  -webkit-transform: translate(-50%,-50%);
  -ms-transform: translate(-50%,-50%);
  transform: translate(-50%,-50%);
  -webkit-transition: all 0.2s ease;
  transition: all 0.2s ease;
}

.c0 .rotate-caret {
  -webkit-transform: rotate(180deg);
  -ms-transform: rotate(180deg);
  transform: rotate(180deg);
}

.c0 .rotate-caret svg path {
  fill: #0D62FF;
}

.c0 .hide {
  width: 0;
  opacity: 0;
}

.c1 {
  border-radius: 4px 4px 0px 0px;
}

.c3 {
  position: relative;
  box-sizing: border-box;
  padding: 32px 0px;
  font-size: 13px;
  line-height: 16px;
  -webkit-letter-spacing: 0.02em;
  -moz-letter-spacing: 0.02em;
  -ms-letter-spacing: 0.02em;
  letter-spacing: 0.02em;
  color: #64707D;
  cursor: default;
  -webkit-user-select: none;
  -moz-user-select: none;
  -ms-user-select: none;
  user-select: none;
  word-wrap: break-word;
}

.c3 span {
  cursor: pointer;
}

.c3:last-child {
  padding-right: 24px;
}

.c3:first-child {
  padding-left: 30px;
}

.c2 {
  box-shadow: inset 0px -1px 0px rgba(115,127,143,0.2);
}

.c2:not(.table-main-row):hover {
  background: #F1F2F4;
  box-shadow: inset 0px -1px 0px #E3E5E9;
}

.c4 {
  box-sizing: border-box;
  position: relative;
  font-size: 13px;
  line-height: 15px;
  -webkit-letter-spacing: 0.26px;
  -moz-letter-spacing: 0.26px;
  -ms-letter-spacing: 0.26px;
  letter-spacing: 0.26px;
  color: #121213;
  padding: 25px 24px 25px 0px;
  word-wrap: break-word;
  -webkit-transition: all 0.2s ease;
  transition: all 0.2s ease;
}

.c4:first-child {
  text-align: left;
  padding-left: 30px;
}

.c7 {
  position: relative;
  width: 2rem;
  height: 2rem;
  background-color: #008A1E;
  color: black;
  border: 1px grey solid;
}

.c9 {
  position: relative;
  width: 2rem;
  height: 2rem;
  background-color: white;
  color: black;
  border: 1px grey solid;
}

.c11 {
  position: relative;
  width: 2rem;
  height: 2rem;
  background-color: #D50000;
  color: #FFFFFF;
  border: 1px grey solid;
}

.c12 {
  position: relative;
  width: 2rem;
  height: 2rem;
  background-color: #FD9F1C;
  color: #FFFFFF;
  border: 1px grey solid;
}

.c8 {
  display: -webkit-box;
  display: -webkit-flex;
  display: -ms-flexbox;
  display: flex;
  -webkit-box-pack: center;
  -webkit-justify-content: center;
  -ms-flex-pack: center;
  justify-content: center;
  -webkit-align-items: center;
  -webkit-box-align: center;
  -ms-flex-align: center;
  align-items: center;
  border: 1px grey solid;
  border-radius: 50%;
}

.c5 {
  position: 'relative';
}

.c6 {
  position: absolute;
  top: 50%;
  width: 100%;
  height: 2px;
  border-top: 1px grey solid;
}

.c10 {
  position: absolute;
  top: 50%;
  left: -25%;
  width: 50%;
  height: 2px;
  border-top: 1px grey solid;
}

<div>
  
  <table
    class="c0"
  >
    <thead
      class="c1"
    >
      <tr
        class="c2 table-main-row"
      >
        <th
          class="c3"
        >
          <span>
            <span>
              SKU ID
            </span>
          </span>
        </th>
        <th
          class="c3"
        >
          <span>
            <span>
              Created
            </span>
          </span>
        </th>
        <th
          class="c3"
        >
          <span>
            <span>
              Allocated
            </span>
          </span>
        </th>
        <th
          class="c3"
        >
          <span>
            <span>
              Shipped
            </span>
          </span>
        </th>
        <th
          class="c3"
        >
          <span>
            <span>
              Delivered
            </span>
          </span>
        </th>
        <th
          class="c3"
        >
          <span>
            <span>
              Returned
            </span>
          </span>
        </th>
        <th
          class="c3"
        >
          <span>
            <span>
              Cancelled
            </span>
          </span>
        </th>
        <th
          class="c3"
        >
          <span>
            <span>
              Hold
            </span>
          </span>
        </th>
      </tr>
    </thead>
    <tbody>
      <tr
        class="c2"
        data-testid="row-0"
      >
        <td
          class="c4"
        >
          <div>
            <div>
              01283881
            </div>
            <div>
              Cotton Shirt
               (
              3
              )
            </div>
          </div>
        </td>
        <td
          class="c4"
        >
          <div
            class="c5"
          >
            <div
              class="c6"
              data-testid="line-across"
            />
            <div
              class="c7 c8"
            >
              <svg
                fill="white"
                height="16"
                viewBox="0 0 16 16"
                width="16"
                xmlns="http://www.w3.org/2000/svg"
              >
                <path
                  d="M6.26678 13.1996C6.03715 13.1996 5.81613 13.1086 5.65401 12.9457L1.32055 8.61227C0.981693 8.27342 0.981693 7.72564 1.32055 7.38682C1.6594 7.04796 2.20717 7.04796 2.546 7.38682L6.2339 11.0747L13.423 3.08653C13.7436 2.73203 14.2914 2.70175 14.6468 3.0224C15.0022 3.34219 15.0307 3.88996 14.7109 4.24622L6.91071 12.9131C6.75207 13.09 6.52679 13.1931 6.28931 13.2H6.26678L6.26678 13.1996Z"
                  fill="white"
                />
              </svg>
            </div>
          </div>
        </td>
        <td
          class="c4"
        >
          <div
            class="c5"
          >
            <div
              class="c6"
              data-testid="line-across"
            />
            <div
              class="c9 c8"
            >
              2
            </div>
          </div>
        </td>
        <td
          class="c4"
        >
          <div
            class="c5"
          >
            <div
              class="c6"
              data-testid="line-across"
            />
            <div
              class="c9 c8"
            >
              2
            </div>
          </div>
        </td>
        <td
          class="c4"
        >
          <div
            class="c5"
          >
            <div
              class="c10"
              data-testid="line-left"
            />
            <div
              class="c9 c8"
            >
              1
            </div>
          </div>
        </td>
        <td
          class="c4"
        >
          <div
            class="c5"
          >
            <div
              class="c9 c8"
            />
          </div>
        </td>
        <td
          class="c4"
        >
          <div
            class="c5"
          >
            <div
              class="c9 c8"
            />
          </div>
        </td>
        <td
          class="c4"
        >
          <div
            class="c5"
          >
            <div
              class="c11 c8"
            >
              1
            </div>
          </div>
        </td>
      </tr>
      <tr
        class="c2"
        data-testid="row-1"
      >
        <td
          class="c4"
        >
          <div>
            <div>
              01283881
            </div>
            <div>
              Boyfriend jeans
               (
              2
              )
            </div>
          </div>
        </td>
        <td
          class="c4"
        >
          <div
            class="c5"
          >
            <div
              class="c6"
              data-testid="line-across"
            />
            <div
              class="c9 c8"
            />
          </div>
        </td>
        <td
          class="c4"
        >
          <div
            class="c5"
          >
            <div
              class="c6"
              data-testid="line-across"
            />
            <div
              class="c9 c8"
            >
              1
            </div>
          </div>
        </td>
        <td
          class="c4"
        >
          <div
            class="c5"
          >
            <div
              class="c6"
              data-testid="line-across"
            />
            <div
              class="c9 c8"
            />
          </div>
        </td>
        <td
          class="c4"
        >
          <div
            class="c5"
          >
            <div
              class="c10"
              data-testid="line-left"
            />
            <div
              class="c9 c8"
            />
          </div>
        </td>
        <td
          class="c4"
        >
          <div
            class="c5"
          >
            <div
              class="c12 c8"
            >
              1
            </div>
          </div>
        </td>
        <td
          class="c4"
        >
          <div
            class="c5"
          >
            <div
              class="c9 c8"
            />
          </div>
        </td>
        <td
          class="c4"
        >
          <div
            class="c5"
          >
            <div
              class="c9 c8"
            />
          </div>
        </td>
      </tr>
    </tbody>
    <tfoot />
  </table>
</div>
`;
