// Jest Snapshot v1, https://goo.gl/fbAQLP

exports[`MultiSelectTextChips should render primary MultiSelectTextChips correctly with default props 1`] = `
.c0 {
  width: 100%;
  display: -webkit-box;
  display: -webkit-flex;
  display: -ms-flexbox;
  display: flex;
  -webkit-flex-direction: column;
  -ms-flex-direction: column;
  flex-direction: column;
  border-right-width: 0;
  border-left-width: 0;
  border-top-width: 0;
  cursor: pointer;
  border-bottom-width: 1px;
  border-bottom-color: #121213;
  border-bottom-style: solid;
  font-size: 13px;
  font-family: Gilroy-Medium;
  -webkit-letter-spacing: 0.26px;
  -moz-letter-spacing: 0.26px;
  -ms-letter-spacing: 0.26px;
  letter-spacing: 0.26px;
  line-height: 15px;
  font-style: normal;
  position: relative;
}

.c0 .chips-label {
  color: #121213;
}

.c0 .chips_container {
  display: -webkit-box;
  display: -webkit-flex;
  display: -ms-flexbox;
  display: flex;
  -webkit-flex-wrap: wrap;
  -ms-flex-wrap: wrap;
  flex-wrap: wrap;
}

.c0 .chips_container .chips-margin-bottom {
  margin-bottom: 8px;
}

.c0 .dropDown-trigger_icon {
  position: absolute;
  top: 0;
  right: 8px;
}

.c0 .floating-dropdown-container {
  margin-bottom: 16px;
}

.c0:hover .chips-clear-button {
  opacity: 1;
}

<div>
  <div
    class="c0"
    width="100%"
  >
    <div
      class="floating-dropdown-container"
    >
      <div
        class="chips-label"
      >
        Label
      </div>
      <span
        class="dropDown-trigger_icon"
      >
        <svg
          data-testid="dropdown-trigger-icon"
          fill="#121213"
          height="16"
          viewBox="0 0 16 16"
          width="16"
          xmlns="http://www.w3.org/2000/svg"
        >
          <path
            d="M3.08953 4.96967C2.79664 4.67678 2.32177 4.67678 2.02887 4.96967C1.73598 5.26256 1.73598 5.73744 2.02887 6.03033L3.08953 4.96967ZM7.52884 11.5303C7.82173 11.8232 8.2966 11.8232 8.5895 11.5303C8.88239 11.2374 8.88239 10.7625 8.5895 10.4696L7.52884 11.5303ZM2.02887 6.03033L7.52884 11.5303L8.5895 10.4696L3.08953 4.96967L2.02887 6.03033Z"
          />
          <path
            d="M14.0303 6.08905C14.3232 5.79616 14.3232 5.32129 14.0303 5.02839C13.7374 4.73549 13.2626 4.73549 12.9697 5.02838L14.0303 6.08905ZM7.52804 10.4699C7.23514 10.7628 7.23514 11.2377 7.52803 11.5306C7.82092 11.8235 8.29579 11.8235 8.58869 11.5306L7.52804 10.4699ZM12.9697 5.02838L7.52804 10.4699L8.58869 11.5306L14.0303 6.08905L12.9697 5.02838Z"
          />
        </svg>
      </span>
    </div>
  </div>
</div>
`;
