// Jest Snapshot v1, https://goo.gl/fbAQLP

exports[`<RightRailLoader/> should render RightRail loader with default prop values 1`] = `
.c0 {
  box-sizing: border-box;
  background: white;
  height: 100%;
  display: -webkit-box;
  display: -webkit-flex;
  display: -ms-flexbox;
  display: flex;
  -webkit-flex-direction: column;
  -ms-flex-direction: column;
  flex-direction: column;
  -webkit-align-items: center;
  -webkit-box-align: center;
  -ms-flex-align: center;
  align-items: center;
}

.c0 div {
  margin-top: 29px;
}

.c0 div:first-child {
  margin-top: 36px;
}

.c0 div:nth-child(2) {
  margin-top: 88px;
}

.c1 {
  box-sizing: border-box;
  width: 36px;
  height: 36px;
  border-radius: 60px;
  background-repeat: no-repeat;
  background-size: 800px 104px;
  -webkit-animation: gyrvJD 1s linear infinite forwards;
  animation: gyrvJD 1s linear infinite forwards;
}

<div>
  <div
    class="c0"
  >
    <div
      class="c1"
      height="36px"
      width="36px"
    />
    <div
      class="c1"
      height="36px"
      width="36px"
    />
    <div
      class="c1"
      height="36px"
      width="36px"
    />
    <div
      class="c1"
      height="36px"
      width="36px"
    />
    <div
      class="c1"
      height="36px"
      width="36px"
    />
  </div>
</div>
`;

exports[`<RightRailLoader/> should render RightRail loader with rowCount:10 theme:dark 1`] = `
.c0 {
  box-sizing: border-box;
  background: white;
  height: 100%;
  display: -webkit-box;
  display: -webkit-flex;
  display: -ms-flexbox;
  display: flex;
  -webkit-flex-direction: column;
  -ms-flex-direction: column;
  flex-direction: column;
  -webkit-align-items: center;
  -webkit-box-align: center;
  -ms-flex-align: center;
  align-items: center;
}

.c0 div {
  margin-top: 29px;
}

.c0 div:first-child {
  margin-top: 36px;
}

.c0 div:nth-child(2) {
  margin-top: 88px;
}

.c1 {
  box-sizing: border-box;
  width: 36px;
  height: 36px;
  border-radius: 60px;
  background: #E3E5E9;
  background-image: linear-gradient( to right,#E3E5E9 0%,#dfdee0 20%,#E3E5E9 30%,#E3E5E9 100% );
  background-repeat: no-repeat;
  background-size: 800px 104px;
  -webkit-animation: gyrvJD 1s linear infinite forwards;
  animation: gyrvJD 1s linear infinite forwards;
}

<div>
  <div
    class="c0"
  >
    <div
      class="c1"
      height="36px"
      width="36px"
    />
    <div
      class="c1"
      height="36px"
      width="36px"
    />
    <div
      class="c1"
      height="36px"
      width="36px"
    />
    <div
      class="c1"
      height="36px"
      width="36px"
    />
    <div
      class="c1"
      height="36px"
      width="36px"
    />
    <div
      class="c1"
      height="36px"
      width="36px"
    />
    <div
      class="c1"
      height="36px"
      width="36px"
    />
    <div
      class="c1"
      height="36px"
      width="36px"
    />
    <div
      class="c1"
      height="36px"
      width="36px"
    />
    <div
      class="c1"
      height="36px"
      width="36px"
    />
  </div>
</div>
`;

exports[`<RightRailLoader/> should render RightRail loader with rowCount:10 theme:light 1`] = `
.c0 {
  box-sizing: border-box;
  background: white;
  height: 100%;
  display: -webkit-box;
  display: -webkit-flex;
  display: -ms-flexbox;
  display: flex;
  -webkit-flex-direction: column;
  -ms-flex-direction: column;
  flex-direction: column;
  -webkit-align-items: center;
  -webkit-box-align: center;
  -ms-flex-align: center;
  align-items: center;
}

.c0 div {
  margin-top: 29px;
}

.c0 div:first-child {
  margin-top: 36px;
}

.c0 div:nth-child(2) {
  margin-top: 88px;
}

.c1 {
  box-sizing: border-box;
  width: 36px;
  height: 36px;
  border-radius: 60px;
  background: #F1F2F4;
  background-image: linear-gradient( to right,#F1F2F4 0%,#e8eaed 20%,#F1F2F4 30%,#F1F2F4 100% );
  background-repeat: no-repeat;
  background-size: 800px 104px;
  -webkit-animation: gyrvJD 1s linear infinite forwards;
  animation: gyrvJD 1s linear infinite forwards;
}

<div>
  <div
    class="c0"
  >
    <div
      class="c1"
      height="36px"
      width="36px"
    />
    <div
      class="c1"
      height="36px"
      width="36px"
    />
    <div
      class="c1"
      height="36px"
      width="36px"
    />
    <div
      class="c1"
      height="36px"
      width="36px"
    />
    <div
      class="c1"
      height="36px"
      width="36px"
    />
    <div
      class="c1"
      height="36px"
      width="36px"
    />
    <div
      class="c1"
      height="36px"
      width="36px"
    />
    <div
      class="c1"
      height="36px"
      width="36px"
    />
    <div
      class="c1"
      height="36px"
      width="36px"
    />
    <div
      class="c1"
      height="36px"
      width="36px"
    />
  </div>
</div>
`;
